Query_ID	TF
MA0004.1	ARNT
MA0028.2	ELK1
MA0039.3	KLF4
MA0048.2	NHLH1
MA0058.3	MAX
MA0059.1	NHLH1
MA0062.2	GABPA
MA0073.1	RREB1
MA0076.2	ELK4
MA0079.3	SP1
MA0093.2	USF1
MA0095.2	YY1
MA0098.3	ETS1
MA0104.4	MYCN
MA0136.2	ELF5
MA0139.1	CTCF
MA0147.3	MYCN
MA0156.2	FEV
MA0162.3	EGR1
MA0464.2	BHLHE40
MA0470.1	E2F4
MA0471.1	E2F6
MA0472.2	EGR2
MA0474.2	ERG
MA0475.2	FLI1
MA0499.1	MYOD1
MA0500.1	MYOG
MA0507.1	POU2F2
MA0516.1	SP2
MA0526.2	USF2
MA0528.1	ZNF263
MA0595.1	SREBF1
MA0596.1	SREBF2
MA0599.1	KLF5
MA0603.1	ARNTL
MA0608.1	CREB3L2
MA0617.1	ID2
MA0620.2	MITF
MA0622.1	MLXIP
MA0626.1	NPAS2
MA0627.1	POU2F3
MA0636.1	BHLHE41
MA0638.1	CREB3
MA0641.1	ELF4
MA0645.1	ETV6
MA0649.1	HEY2
MA0663.1	MLX
MA0664.1	MLXIPL
MA0685.1	SP4
MA0692.1	TFEB
MA0732.1	EGR3
MA0733.1	EGR4
MA0735.1	GLIS1
MA0736.1	GLIS2
MA0737.1	GLIS3
MA0740.1	KLF14
MA0741.1	KLF16
MA0746.1	SP3
MA0747.1	SP8
MA0750.2	ZBTB7A
MA0753.1	ZNF740
MA0759.1	ELK1
MA0760.1	ERF
MA0761.1	ETV1
MA0762.1	ETV2
MA0763.1	ETV3
MA0764.1	ETV4
MA0765.1	ETV5
MA0784.1	POU1F1
MA0785.1	POU2F1
MA0786.1	POU3F1
MA0787.1	POU3F2
MA0788.1	POU3F3
MA0789.1	POU3F4
MA0792.1	POU5F1B
MA0803.1	TBX15
MA0805.1	TBX1
MA0816.1	ASCL2
MA0819.1	CLOCK
MA0821.1	HES5
MA0822.1	HES7
MA0823.1	HEY1
MA0825.1	MNT
MA0828.1	SREBF2
MA0829.1	SREBF1
MA0831.2	TFE3
MA0839.1	CREB3L1
MA0871.1	TFEC
MA1100.1	ASCL1
MA1102.1	CTCFL
MA1107.1	KLF9
MA1108.1	MXI1
MA1115.1	POU5F1
MA1122.1	TFDP1
UP00000_2	SMAD3
UP00001_2	E2F2
UP00002_1	SP4
UP00003_2	E2F3
UP00007_1	EGR1
UP00013_1	GABPA
UP00015_1	EHF
UP00021_1	ZNF281
UP00022_1	ZNF740
UP00024_1	GLIS2
UP00033_2	ZNF410
UP00036_2	MYF6
UP00043_2	BCL6B
UP00047_2	ZBTB7B
UP00050_1	BHLHB2
UP00050_2	BHLHB2
UP00060_1	MAX
UP00088_1	PLAGL1
UP00090_1	ELF3
UP00093_1	KLF7
UP00093_2	KLF7
UP00096_2	SOX13
UP00099_1	ASCL2
UP00099_2	ASCL2
UP00179_1	POU2F3
UP00191_1	POU2F2
UP00211_1	POU3F3