Term	Overlap	P-value	Adjusted P-value	Old P-value	Old Adjusted P-value	Odds Ratio	Combined Score	Genes
TNF-alpha Signaling via NF-kB	8/200	6.09787311478554E-8	1.4634895475485296E-6	0	0	17.893115942028984	297.2536955186497	EGR1;KLF6;SMAD3;EGR3;NR4A3;BHLHE40;KLF9;KLF4
Wnt-beta Catenin Signaling	3/42	1.9824414556069952E-4	0.001212497266571527	0	0	30.025641025641026	255.99895252676032	HDAC2;HEY1;TP53
G2-M Checkpoint	5/200	2.020828777619212E-4	0.001212497266571527	0	0	10.33542647828362	87.92174350764732	SMAD3;RAD21;E2F1;CTCF;E2F4
Estrogen Response Early	5/200	2.020828777619212E-4	0.001212497266571527	0	0	10.33542647828362	87.92174350764732	FOXC1;EGR3;BHLHE40;RARA;KLF4
Hypoxia	4/200	0.0020765932331265552	0.009967647519007465	0	0	8.061224489795919	49.79439807569174	KLF7;KLF6;BHLHE40;ETS1
p53 Pathway	3/200	0.016816102196470534	0.044842939190588085	0	0	5.896984174380412	24.09164757699128	SP1;KLF4;TP53
heme Metabolism	3/200	0.016816102196470534	0.044842939190588085	0	0	5.896984174380412	24.09164757699128	FOXJ2;VEZF1;KLF3
Estrogen Response Late	3/200	0.016816102196470534	0.044842939190588085	0	0	5.896984174380412	24.09164757699128	FOXC1;EGR3;KLF4
E2F Targets	3/200	0.016816102196470534	0.044842939190588085	0	0	5.896984174380412	24.09164757699128	RAD21;CTCF;TP53
UV Response Dn	2/144	0.05776895201515079	0.13864548483636188	0	0	5.3640303358613215	15.294480133569229	SMAD3;BHLHE40
Apoptosis	2/161	0.07022528984281871	0.15321881420251354	0	0	4.78640541848089	12.71291669309357	EGR3;RARA
Hedgehog Signaling	1/36	0.09282190658441714	0.1626130764341368	0	0	10.733692722371968	25.514766917792368	HEY1
IL-2/STAT5 Signaling	2/199	0.10078500132391571	0.1626130764341368	0	0	3.8557204217102696	8.847975091309102	KLF6;BHLHE40
Allograft Rejection	2/200	0.1016331727713355	0.1626130764341368	0	0	3.836052836052836	8.77069478933889	SPI1;ETS1
KRAS Signaling Up	2/200	0.1016331727713355	0.1626130764341368	0	0	3.836052836052836	8.77069478933889	KLF4;ETS1
TGF-beta Signaling	1/54	0.13600717688085265	0.204010765321279	0	0	7.0818796724813105	14.128687210183033	SMAD3
PI3K/AKT/mTOR  Signaling	1/105	0.24770329237259123	0.34969876570248176	0	0	3.5997822931785195	5.023581327863361	E2F1
Coagulation	1/138	0.31229043200296797	0.41638724267062394	0	0	2.728136620300234	3.1750644693036687	KLF7
DNA Repair	1/150	0.33440055490417686	0.41925359962796727	0	0	2.5069013549449157	2.7460991987490533	TP53
Myogenesis	1/200	0.41925359962796727	0.41925359962796727	0	0	1.8722859580923485	1.627539412897697	BHLHE40
Complement	1/200	0.41925359962796727	0.41925359962796727	0	0	1.8722859580923485	1.627539412897697	ZEB1
mTORC1 Signaling	1/200	0.41925359962796727	0.41925359962796727	0	0	1.8722859580923485	1.627539412897697	BHLHE40
Myc Targets V1	1/200	0.41925359962796727	0.41925359962796727	0	0	1.8722859580923485	1.627539412897697	HDAC2
Inflammatory Response	1/200	0.41925359962796727	0.41925359962796727	0	0	1.8722859580923485	1.627539412897697	KLF6
