Term	Overlap	P-value	Adjusted P-value	Old P-value	Old Adjusted P-value	Odds Ratio	Combined Score	Genes
HDAC1 human	5/71	1.3498488381208E-6	1.848546310966677E-4	0	0	30.735930735930737	415.41202337304696	EGR1;SP1;E2F1;KLF4;TP53
ESR1 human	5/76	1.895944934324797E-6	1.848546310966677E-4	0	0	28.56424259844783	376.356553324106	ZEB1;SP1;RARA;E2F1;TP53
SP1 mouse	7/270	7.78794504314024E-6	5.062164278041156E-4	0	0	11.146428282501416	131.11469495150433	EGR1;ZBTB14;SP1;NR1H2;BHLHE40;ETS1;KLF16
VHL human	3/20	2.0530658518209544E-5	8.006956822101723E-4	0	0	68.95847750865052	744.3096195574882	BHLHE40;TCF4;TP53
RB1 mouse	3/20	2.0530658518209544E-5	8.006956822101723E-4	0	0	68.95847750865052	744.3096195574882	SPI1;SP1;E2F1
NOTCH1 mouse	3/23	3.1712312522348865E-5	0.001030650156976338	0	0	58.60588235294118	607.0869390782797	SPI1;HEY1;TCF3
CREBBP human	3/25	4.102780324888895E-5	0.0011429173762190494	0	0	53.27272727272727	538.121700685003	RARA;EP300;TP53
JUN human	5/149	5.056807939171551E-5	0.0012325969351730656	0	0	14.03202947845805	138.80750200638752	SPI1;HEY1;RARA;TP53;ETS1
STAT3 mouse	4/79	6.136625686118837E-5	0.001329602231992415	0	0	21.195733333333333	205.57000834309562	EGR1;SPI1;TCF4;KLF4
TRP53 mouse	5/167	8.685526834317974E-5	0.001693677732692005	0	0	12.461577223481985	116.53154092803521	EGR1;SMAD3;E2F1;TCF4;KLF4
SOX4 mouse	2/6	1.0658398819885696E-4	0.0018894434271615552	0	0	191.75	1753.8561899938488	SPI1;TCF4
DACH1 mouse	2/7	1.489595205901835E-4	0.0020747933225061274	0	0	153.3923076923077	1351.6678533430645	SOX2;KLF4
NFATC1 human	2/7	1.489595205901835E-4	0.0020747933225061274	0	0	153.3923076923077	1351.6678533430645	EGR3;SP1
NR2F2 human	2/7	1.489595205901835E-4	0.0020747933225061274	0	0	153.3923076923077	1351.6678533430645	HEY1;E2F1
DMTF1 mouse	2/8	1.982691684172618E-4	0.0022742639906685913	0	0	127.82051282051282	1089.7829947402583	EGR1;ETS1
ERCC2 human	2/8	1.982691684172618E-4	0.0022742639906685913	0	0	127.82051282051282	1089.7829947402583	E2F1;TP53
PAX8 human	2/8	1.982691684172618E-4	0.0022742639906685913	0	0	127.82051282051282	1089.7829947402583	E2F1;TP53
PER1 mouse	2/9	2.5447657793138006E-4	0.0027568295942566176	0	0	109.55494505494505	906.7097843462694	EGR1;BHLHE40
ID2 mouse	2/11	3.8743995530845664E-4	0.003976357436060476	0	0	85.2008547008547	669.3336268156615	SPI1;TCF3
ARNTL mouse	2/12	4.641239039697884E-4	0.004352376709432277	0	0	76.67692307692307	588.5229121650322	BHLHE40;TCF3
BRCA1 human	3/57	4.910373723462056E-4	0.004352376709432277	0	0	21.66884531590414	165.09472267079332	EGR1;FOXC1;EP300
WT1 human	3/57	4.910373723462056E-4	0.004352376709432277	0	0	21.66884531590414	165.09472267079332	SMAD3;CTCF;ETS1
NF1 human	2/14	6.377173030824915E-4	0.005406733656568949	0	0	63.89102564102564	470.08559874216274	SP3;TP53
TP63 human	2/15	7.345555571872974E-4	0.00572953334606092	0	0	58.97337278106509	425.56630208545965	TCF4;KLF4
HOXA10 human	2/15	7.345555571872974E-4	0.00572953334606092	0	0	58.97337278106509	425.56630208545965	KLF9;TP53
HMGA1 human	2/17	9.481382056935088E-4	0.0071110365427013164	0	0	51.1051282051282	355.7433227832543	SP1;TP53
TP53 human	4/164	0.0010017418673392607	0.007234802375227995	0	0	9.893	68.32120567216222	EGR1;SMAD3;E2F1;TP53
PML human	2/19	0.0011880280003667813	0.007988464140397323	0	0	45.088235294117645	303.69002734168436	EP300;TP53
SRF mouse	2/19	0.0011880280003667813	0.007988464140397323	0	0	45.088235294117645	303.69002734168436	EGR1;KLF3
EGR1 human	3/88	0.0017361096774850563	0.011284712903652867	0	0	13.744636678200692	87.36240183368733	EP300;TCF4;TP53
CREB1 human	3/90	0.0018515782653490596	0.011645565845359909	0	0	13.427315753887761	84.480869278287	NR4A3;GABPA;NR2F6
YY1 human	3/91	0.0019110672156488057	0.011645565845359909	0	0	13.274064171122994	83.09688205728912	HDAC2;CTCF;TP53
SIRT1 mouse	2/26	0.0022307971565230693	0.013181983197636318	0	0	31.92628205128205	194.92260392854524	BCLAF1;SMAD3
HDAC2 human	2/27	0.002405103597341798	0.013793976514166195	0	0	30.647692307692306	184.81055875222285	SP1;KLF4
MYC human	3/100	0.0025005948185040003	0.01393188541737943	0	0	12.036992116434202	72.11634792982616	HDAC2;EP300;TP53
LEF1 human	2/29	0.002772381493139292	0.015017066421171166	0	0	28.374643874643876	167.0712816687644	TCF4;TCF3
RB1 human	2/31	0.0031643223277353994	0.016676833889416293	0	0	26.415119363395224	152.0405762035586	SP1;E2F1
CDX2 human	2/32	0.003369457930597071	0.016847289652985355	0	0	25.533333333333335	145.3613534547405	SP1;KLF4
ETS2 human	2/32	0.003369457930597071	0.016847289652985355	0	0	25.533333333333335	145.3613534547405	EGR1;TP53
GATA3 human	2/38	0.0047265043601269615	0.022479715859140426	0	0	21.271367521367523	113.8990133200568	FOXC1;ZEB1
NR3C1 human	2/38	0.0047265043601269615	0.022479715859140426	0	0	21.271367521367523	113.8990133200568	ETS1;TP53
EZH2 human	2/40	0.0052261580017125345	0.023161382053044185	0	0	20.149797570850204	105.86862582436255	FOXC1;TP53
KLF4 human	2/40	0.0052261580017125345	0.023161382053044185	0	0	20.149797570850204	105.86862582436255	RARA;TP53
RUNX1 human	2/40	0.0052261580017125345	0.023161382053044185	0	0	20.149797570850204	105.86862582436255	SPI1;KLF4
PAX6 mouse	2/43	0.006019099019507137	0.02608276241786426	0	0	18.672607879924954	95.46963998767033	SOX2;TCF4
MYCN human	2/45	0.006576328212641212	0.027877913075326877	0	0	17.802325581395348	89.44384543900023	HDAC2;TP53
IRF1 human	2/51	0.008382535244155703	0.034778603672560894	0	0	15.617739403453688	74.6778588702288	E2F1;TP53
NFKB1 human	4/303	0.009015235057133336	0.036624392419604176	0	0	5.256722408026756	24.753061319921155	EGR1;E2F1;CTCF;TP53
FOS mouse	2/56	0.010038152704654208	0.03994775055933818	0	0	14.168091168091168	65.19251879575016	EGR1;SPI1
FOS human	2/57	0.010385321677248704	0.04050275454126995	0	0	13.90979020979021	63.53104510332115	SPI1;TP53
ETS1 mouse	2/59	0.011095463990631823	0.04242383290535697	0	0	13.42037786774629	60.40805855278045	EGR1;ZEB1
CTNNB1 mouse	2/62	0.012199741169170162	0.04419882731432078	0	0	12.747435897435897	56.16954361556468	E2F1;TCF4
PPARG human	2/66	0.013743789789728367	0.04419882731432078	0	0	11.948317307692308	51.22444610721821	KLF4;TP53
TFAP2A human	2/71	0.01578642864867826	0.04419882731432078	0	0	11.079710144927537	45.96533707599713	KLF12;ETS1
ARID3A human	1/6	0.016092906355470643	0.04419882731432078	0	0	75.24905660377358	310.73170127161313	E2F1
ARNTL human	1/6	0.016092906355470643	0.04419882731432078	0	0	75.24905660377358	310.73170127161313	BHLHE40
WWTR1 human	1/6	0.016092906355470643	0.04419882731432078	0	0	75.24905660377358	310.73170127161313	SMAD3
ZFP148 mouse	1/6	0.016092906355470643	0.04419882731432078	0	0	75.24905660377358	310.73170127161313	SPI1
EOMES mouse	1/6	0.016092906355470643	0.04419882731432078	0	0	75.24905660377358	310.73170127161313	SOX2
ETV2 mouse	1/6	0.016092906355470643	0.04419882731432078	0	0	75.24905660377358	310.73170127161313	SPI1
IKBKB human	1/6	0.016092906355470643	0.04419882731432078	0	0	75.24905660377358	310.73170127161313	TP53
LMX1B human	1/6	0.016092906355470643	0.04419882731432078	0	0	75.24905660377358	310.73170127161313	TCF3
MSX1 human	1/6	0.016092906355470643	0.04419882731432078	0	0	75.24905660377358	310.73170127161313	HEY1
MTF1 mouse	1/6	0.016092906355470643	0.04419882731432078	0	0	75.24905660377358	310.73170127161313	EP300
NKX2-1 human	1/6	0.016092906355470643	0.04419882731432078	0	0	75.24905660377358	310.73170127161313	SP1
NUPR1 mouse	1/6	0.016092906355470643	0.04419882731432078	0	0	75.24905660377358	310.73170127161313	EP300
PAX2 human	1/6	0.016092906355470643	0.04419882731432078	0	0	75.24905660377358	310.73170127161313	TP53
PAX7 mouse	1/6	0.016092906355470643	0.04419882731432078	0	0	75.24905660377358	310.73170127161313	ETS1
PLAG1 mouse	1/6	0.016092906355470643	0.04419882731432078	0	0	75.24905660377358	310.73170127161313	EGR1
SATB1 mouse	1/6	0.016092906355470643	0.04419882731432078	0	0	75.24905660377358	310.73170127161313	SPI1
SOX6 human	1/6	0.016092906355470643	0.04419882731432078	0	0	75.24905660377358	310.73170127161313	TP53
CEBPE human	1/7	0.018750240650692064	0.04687560162673016	0	0	62.704402515723274	249.34710980306107	SPI1
E2F6 human	1/7	0.018750240650692064	0.04687560162673016	0	0	62.704402515723274	249.34710980306107	E2F1
ELK1 mouse	1/7	0.018750240650692064	0.04687560162673016	0	0	62.704402515723274	249.34710980306107	EGR1
ING1 human	1/7	0.018750240650692064	0.04687560162673016	0	0	62.704402515723274	249.34710980306107	TP53
NFATC2 human	1/7	0.018750240650692064	0.04687560162673016	0	0	62.704402515723274	249.34710980306107	EGR3
SALL4 human	1/7	0.018750240650692064	0.04687560162673016	0	0	62.704402515723274	249.34710980306107	ZEB1
SIN3A mouse	1/7	0.018750240650692064	0.04687560162673016	0	0	62.704402515723274	249.34710980306107	SP3
ETS1 human	2/79	0.019306420224279683	0.0476550878953739	0	0	9.924575424575425	39.175451089946186	EGR1;TP53
ATF5 human	1/8	0.021400531511072123	0.04852446098440772	0	0	53.74393530997305	206.60993448840276	EGR1
HES1 human	1/8	0.021400531511072123	0.04852446098440772	0	0	53.74393530997305	206.60993448840276	E2F1
MYBL2 human	1/8	0.021400531511072123	0.04852446098440772	0	0	53.74393530997305	206.60993448840276	SP1
NR0B2 human	1/8	0.021400531511072123	0.04852446098440772	0	0	53.74393530997305	206.60993448840276	E2F1
RBMX human	1/8	0.021400531511072123	0.04852446098440772	0	0	53.74393530997305	206.60993448840276	EGR1
RNF2 mouse	1/8	0.021400531511072123	0.04852446098440772	0	0	53.74393530997305	206.60993448840276	SOX2
SMAD7 mouse	1/8	0.021400531511072123	0.04852446098440772	0	0	53.74393530997305	206.60993448840276	SMAD3
ESRRA human	1/9	0.024043797089670676	0.050962396005280235	0	0	47.02358490566038	175.29819860584723	NR2F6
HIC1 human	1/9	0.024043797089670676	0.050962396005280235	0	0	47.02358490566038	175.29819860584723	E2F1
HIPK2 human	1/9	0.024043797089670676	0.050962396005280235	0	0	47.02358490566038	175.29819860584723	TP53
MYCN mouse	1/9	0.024043797089670676	0.050962396005280235	0	0	47.02358490566038	175.29819860584723	HDAC2
NCOA3 mouse	1/9	0.024043797089670676	0.050962396005280235	0	0	47.02358490566038	175.29819860584723	KLF4
SP2 mouse	1/9	0.024043797089670676	0.050962396005280235	0	0	47.02358490566038	175.29819860584723	ETS1
TAL1 mouse	1/10	0.026680055532623963	0.05202610828861673	0	0	41.79664570230608	151.46431378315344	TCF3
ABL1 human	1/10	0.026680055532623963	0.05202610828861673	0	0	41.79664570230608	151.46431378315344	TP53
TFDP1 human	1/10	0.026680055532623963	0.05202610828861673	0	0	41.79664570230608	151.46431378315344	TP53
GATA2 mouse	1/10	0.026680055532623963	0.05202610828861673	0	0	41.79664570230608	151.46431378315344	SPI1
GFI1 mouse	1/10	0.026680055532623963	0.05202610828861673	0	0	41.79664570230608	151.46431378315344	SPI1
LMO2 human	1/10	0.026680055532623963	0.05202610828861673	0	0	41.79664570230608	151.46431378315344	ZEB1
POU2F2 human	1/10	0.026680055532623963	0.05202610828861673	0	0	41.79664570230608	151.46431378315344	SPI1
RBL2 mouse	1/10	0.026680055532623963	0.05202610828861673	0	0	41.79664570230608	151.46431378315344	SOX2
TFAP2C mouse	1/11	0.02930932497110778	0.05243411348042217	0	0	37.615094339622644	132.7756240232595	KLF4
CITED2 mouse	1/11	0.02930932497110778	0.05243411348042217	0	0	37.615094339622644	132.7756240232595	SMAD3
IRF4 mouse	1/11	0.02930932497110778	0.05243411348042217	0	0	37.615094339622644	132.7756240232595	SPI1
KLF5 mouse	1/11	0.02930932497110778	0.05243411348042217	0	0	37.615094339622644	132.7756240232595	EGR1
LDB1 mouse	1/11	0.02930932497110778	0.05243411348042217	0	0	37.615094339622644	132.7756240232595	TCF3
NFIC mouse	1/11	0.02930932497110778	0.05243411348042217	0	0	37.615094339622644	132.7756240232595	KLF4
PARP1 mouse	1/11	0.02930932497110778	0.05243411348042217	0	0	37.615094339622644	132.7756240232595	E2F1
PPARD mouse	1/11	0.02930932497110778	0.05243411348042217	0	0	37.615094339622644	132.7756240232595	SP1
RORA mouse	1/11	0.02930932497110778	0.05243411348042217	0	0	37.615094339622644	132.7756240232595	E2F1
APC human	1/12	0.03193162350337226	0.055595237349621345	0	0	34.19382504288165	117.76895070161899	KLF4
MSX1 mouse	1/12	0.03193162350337226	0.055595237349621345	0	0	34.19382504288165	117.76895070161899	ETS1
NR1I2 mouse	1/12	0.03193162350337226	0.055595237349621345	0	0	34.19382504288165	117.76895070161899	E2F1
AR mouse	1/13	0.03454696920988076	0.05807464651660991	0	0	31.342767295597483	105.4820602978719	SOX2
TP73 human	1/13	0.03454696920988076	0.05807464651660991	0	0	31.342767295597483	105.4820602978719	E2F1
KAT2B human	1/13	0.03454696920988076	0.05807464651660991	0	0	31.342767295597483	105.4820602978719	ZEB1
STAT5A human	1/13	0.03454696920988076	0.05807464651660991	0	0	31.342767295597483	105.4820602978719	SP1
CLOCK human	1/14	0.03715538012271022	0.06088486658763439	0	0	28.93033381712627	95.25736807729457	BHLHE40
POU2AF1 mouse	1/14	0.03715538012271022	0.06088486658763439	0	0	28.93033381712627	95.25736807729457	SPI1
SIX1 mouse	1/14	0.03715538012271022	0.06088486658763439	0	0	28.93033381712627	95.25736807729457	SALL1
SP1 human	4/472	0.03837529572343989	0.061528495855334375	0	0	3.3295726495726496	10.85554344368766	EGR1;SP3;RARA;E2F1
TBP human	1/15	0.03975687424498529	0.061528495855334375	0	0	26.862533692722373	86.63093286520242	E2F1
CLOCK mouse	1/15	0.03975687424498529	0.061528495855334375	0	0	26.862533692722373	86.63093286520242	BHLHE40
ING4 human	1/15	0.03975687424498529	0.061528495855334375	0	0	26.862533692722373	86.63093286520242	TP53
NFYA mouse	1/15	0.03975687424498529	0.061528495855334375	0	0	26.862533692722373	86.63093286520242	E2F1
NR4A1 human	1/15	0.03975687424498529	0.061528495855334375	0	0	26.862533692722373	86.63093286520242	E2F1
SATB1 human	1/15	0.03975687424498529	0.061528495855334375	0	0	26.862533692722373	86.63093286520242	SPI1
ATF3 human	1/16	0.04235146953793646	0.06451981687420008	0	0	25.07044025157233	79.26651858378708	TP53
STAT6 mouse	1/16	0.04235146953793646	0.06451981687420008	0	0	25.07044025157233	79.26651858378708	EGR1
GATA1 mouse	1/17	0.04493918392504326	0.06638743079835936	0	0	23.50235849056604	72.91477862029602	SPI1
MYB mouse	1/17	0.04493918392504326	0.06638743079835936	0	0	23.50235849056604	72.91477862029602	RARA
NR1H3 mouse	1/17	0.04493918392504326	0.06638743079835936	0	0	23.50235849056604	72.91477862029602	BHLHE40
RUNX1 mouse	1/17	0.04493918392504326	0.06638743079835936	0	0	23.50235849056604	72.91477862029602	SPI1
HDAC9 human	1/18	0.04752003528742647	0.06890991619401234	0	0	22.118756936736958	67.38709029166962	TP53
RFX5 human	1/18	0.04752003528742647	0.06890991619401234	0	0	22.118756936736958	67.38709029166962	HDAC2
RELA human	3/301	0.04770686505739316	0.06890991619401234	0	0	3.878405053296486	11.800745370843211	EGR1;E2F1;TP53
TRP73 mouse	1/19	0.05009404144634451	0.07027581353983582	0	0	20.88888888888889	62.538267077796924	E2F1
GATA2 human	1/19	0.05009404144634451	0.07027581353983582	0	0	20.88888888888889	62.538267077796924	SPI1
NR0B2 mouse	1/19	0.05009404144634451	0.07027581353983582	0	0	20.88888888888889	62.538267077796924	SMAD3
SMARCA4 mouse	1/19	0.05009404144634451	0.07027581353983582	0	0	20.88888888888889	62.538267077796924	SOX2
E2F1 human	2/134	0.05085044616895957	0.07082740716390797	0	0	5.773310023310024	17.197919143083322	E2F1;TP53
ARNT human	1/20	0.05266122021570595	0.07131206904210181	0	0	19.788480635551142	58.25483230121243	BHLHE40
MSX2 mouse	1/20	0.05266122021570595	0.07131206904210181	0	0	19.788480635551142	58.25483230121243	ETS1
NANOG mouse	1/20	0.05266122021570595	0.07131206904210181	0	0	19.788480635551142	58.25483230121243	TCF3
NFYA human	1/20	0.05266122021570595	0.07131206904210181	0	0	19.788480635551142	58.25483230121243	SP3
HIF1A mouse	1/21	0.05522158934050639	0.07325312871699827	0	0	18.79811320754717	54.4468793612393	HEY1
NFATC2 mouse	1/21	0.05522158934050639	0.07325312871699827	0	0	18.79811320754717	54.4468793612393	EGR3
PAX5 human	1/21	0.05522158934050639	0.07325312871699827	0	0	18.79811320754717	54.4468793612393	TP53
ATM human	1/22	0.05777516652888407	0.07561179512169391	0	0	17.902066486972146	51.04230466405881	SP1
ETV4 human	1/22	0.05777516652888407	0.07561179512169391	0	0	17.902066486972146	51.04230466405881	ETS1
FOXM1 mouse	1/23	0.06032196944504943	0.07709492491955304	0	0	17.087478559176674	47.98264634686218	SOX2
IRF8 mouse	1/23	0.06032196944504943	0.07709492491955304	0	0	17.087478559176674	47.98264634686218	SPI1
SOX9 human	1/23	0.06032196944504943	0.07709492491955304	0	0	17.087478559176674	47.98264634686218	KLF4
ATF1 human	1/24	0.06286201570363556	0.07709492491955304	0	0	16.343724364232976	45.22003200693963	GABPA
CEBPA mouse	1/24	0.06286201570363556	0.07709492491955304	0	0	16.343724364232976	45.22003200693963	SPI1
FLI1 human	1/24	0.06286201570363556	0.07709492491955304	0	0	16.343724364232976	45.22003200693963	EP300
FOXO1 human	1/24	0.06286201570363556	0.07709492491955304	0	0	16.343724364232976	45.22003200693963	EGR1
HDAC4 human	1/24	0.06286201570363556	0.07709492491955304	0	0	16.343724364232976	45.22003200693963	KLF4
POU5F1 human	1/24	0.06286201570363556	0.07709492491955304	0	0	16.343724364232976	45.22003200693963	SOX2
SMAD1 mouse	1/24	0.06286201570363556	0.07709492491955304	0	0	16.343724364232976	45.22003200693963	HEY1
TCF4 human	1/25	0.06539532289924611	0.07871659237872218	0	0	15.66194968553459	42.71490645721221	KLF4
PARP1 human	1/25	0.06539532289924611	0.07871659237872218	0	0	15.66194968553459	42.71490645721221	E2F1
PGR human	1/25	0.06539532289924611	0.07871659237872218	0	0	15.66194968553459	42.71490645721221	E2F1
ETS2 mouse	1/26	0.0679219085557706	0.08027134647500161	0	0	15.034716981132075	40.43431729208938	EGR1
NR1I2 human	1/26	0.0679219085557706	0.08027134647500161	0	0	15.034716981132075	40.43431729208938	KLF6
RARA human	1/26	0.0679219085557706	0.08027134647500161	0	0	15.034716981132075	40.43431729208938	ETS1
YY1 mouse	1/27	0.0704417901623858	0.08176279215276924	0	0	14.455732946298983	38.35060533159885	TCF4
ERG human	1/27	0.0704417901623858	0.08176279215276924	0	0	14.455732946298983	38.35060533159885	ZEB1
POU5F1 mouse	1/27	0.0704417901623858	0.08176279215276924	0	0	14.455732946298983	38.35060533159885	SOX2
HDAC1 mouse	1/28	0.07295498516431843	0.08368365945318879	0	0	13.919636617749825	36.44039305811433	SP1
SOX2 mouse	1/28	0.07295498516431843	0.08368365945318879	0	0	13.919636617749825	36.44039305811433	SOX2
TWIST1 mouse	1/29	0.07546151096326235	0.08605260022126408	0	0	13.421832884097036	34.683795119411634	ZEB1
YBX1 human	1/30	0.07796138492038997	0.08737051758319564	0	0	12.958360442420298	33.06379625497651	E2F1
CTCF human	1/30	0.07796138492038997	0.08737051758319564	0	0	12.958360442420298	33.06379625497651	RAD21
RUNX3 human	1/30	0.07796138492038997	0.08737051758319564	0	0	12.958360442420298	33.06379625497651	TCF4
DNMT1 human	1/31	0.08045462435891494	0.08964943857136237	0	0	12.525786163522012	31.56575680442027	TP53
LEF1 mouse	1/32	0.08294124653654229	0.0918951311058281	0	0	12.121119902617163	30.177016409267804	TCF3
STAT1 mouse	1/34	0.08789470799411693	0.09683315287487458	0	0	11.385363064608347	27.684827361193253	EGR1
MYB human	1/37	0.09527570001266539	0.10437506462061656	0	0	10.435010482180294	24.532506003993255	SP3
FOXA2 mouse	1/40	0.10259806088452916	0.11176883727644238	0	0	9.630865989356556	21.928867853316255	SOX2
CREBBP mouse	1/41	0.10502589777658966	0.11377805592463879	0	0	9.389622641509433	21.159968270478103	EP300
VDR human	1/42	0.10744728772228493	0.11575812765660531	0	0	9.160147261849977	20.434043374832473	BHLHE40
SIRT1 human	1/48	0.1218411792961756	0.13054412067447385	0	0	7.988358089120835	16.815788479202197	TP53
E2F1 mouse	1/49	0.12421790857292911	0.13093239011741176	0	0	7.821540880503145	16.313528042717785	EGR1
FOXO1 mouse	1/49	0.12421790857292911	0.13093239011741176	0	0	7.821540880503145	16.313528042717785	EGR1
MYC mouse	1/49	0.12421790857292911	0.13093239011741176	0	0	7.821540880503145	16.313528042717785	HDAC2
PPARG mouse	1/50	0.1265883240687765	0.13271356555597535	0	0	7.661532537543319	15.834970375184442	EGR1
CEBPA human	1/51	0.1289524422762036	0.13446912429871496	0	0	7.507924528301887	15.378568956697888	SPI1
EP300 human	1/56	0.14067914651365568	0.14591719984129178	0	0	6.823670668953688	13.383084716807275	ZEB1
GATA1 human	1/57	0.1430058240466105	0.14754569147666163	0	0	6.701482479784366	13.033511707426955	SPI1
EP300 mouse	1/60	0.14994882131606077	0.15389484292964134	0	0	6.359769747361688	12.067416554890574	SMAD3
SP3 mouse	1/83	0.2013755464220889	0.20559283535239445	0	0	4.570639668660838	7.3248327414165475	SP1
STAT1 human	1/84	0.20354081521299808	0.20672114045070117	0	0	4.51534439645374	7.187925847991766	TP53
AR human	1/93	0.2227707347342889	0.22507923975744218	0	0	4.071780147662018	6.1142344674930955	EP300
JUN mouse	1/131	0.29906162642283773	0.30060318119821317	0	0	2.8760522496371554	3.471698829323926	SPI1
STAT3 human	1/142	0.3197394034114253	0.3197394034114253	0	0	2.6502074133547437	3.0218962980174937	TP53
