Term	Overlap	P-value	Adjusted P-value	Old P-value	Old Adjusted P-value	Odds Ratio	Combined Score	Genes
SIN3A	13/214	1.2576467682636429E-14	2.703940551766832E-12	0	0	31.14731221939085	996.9304328026337	HDAC2;SMAD3;SPI1;CTCF;NR2C1;KLF16;SOX2;SP1;SP3;KLF9;E2F4;TCF3;TP53
SP1	13/263	1.7918605762329103E-13	1.9262501194503785E-11	0	0	24.98029268292683	733.1803758337765	EGR1;HDAC2;SMAD3;KLF4;ETS1;KLF6;SP3;KLF9;RARA;E2F1;EP300;TP53;GABPA
KLF4	7/31	1.7464853023113352E-12	1.2516477999897903E-10	0	0	123.62943262411348	3347.071027900616	HDAC2;KLF6;SMAD3;SP1;RARA;EP300;TP53
EP300	14/473	1.9336523604498946E-11	1.0393381437418183E-9	0	0	14.859368191721133	366.56613125498166	EGR1;HDAC2;SMAD3;KLF4;ETS1;KLF16;ZEB1;SP1;SP3;RARA;TCF4;TCF3;TP53;GABPA
YY1	9/120	3.15058635033171E-11	1.3547521306426353E-9	0	0	35.73873873873874	864.1929892987458	HDAC2;SMAD3;SP1;NR1H2;SP3;EP300;CTCF;TCF3;TP53
AR	11/271	1.319234758709653E-10	4.419637913306111E-9	0	0	19.369051878354203	440.622669738653	EGR1;SMAD3;SP1;E2F1;EP300;TCF4;E2F4;TCF3;PATZ1;TP53;NR2C1
CEBPB	9/142	1.4389518787508268E-10	4.419637913306111E-9	0	0	29.793984962406014	675.1893787152163	EGR1;SMAD3;SPI1;SP1;RAD21;SP3;BHLHE40;EP300;TP53
NCOR1	9/155	3.1517987742802253E-10	8.470459205878106E-9	0	0	27.123287671232877	593.3999677979059	SOX2;SP1;NR1H2;RARA;EP300;TCF3;PATZ1;TP53;ETS1
HDAC2	12/387	3.834867557117474E-10	8.533098457754804E-9	0	0	14.911238095238096	323.3012300518714	SOX2;SALL1;SP1;SP3;RARA;E2F1;EP300;E2F4;TCF3;KLF4;TP53;NR2C1
RUNX1	8/106	4.047646059315231E-10	8.533098457754804E-9	0	0	35.22271517302573	761.7868607059909	HDAC2;SMAD3;SPI1;SP1;RARA;EP300;TCF3;ETS1
KAT2A	8/107	4.3657713039675733E-10	8.533098457754804E-9	0	0	34.86517347386913	751.416173052382	HDAC2;SMAD3;RARA;E2F1;EP300;E2F4;TCF3;TP53
SP3	6/38	7.51366750681972E-10	1.3461987616385332E-8	0	0	77.7890625	1634.2803114443477	HDAC2;SP1;E2F1;EP300;TP53;GABPA
PML	9/178	1.077771156485099E-9	1.7824676818792023E-8	0	0	23.40473372781065	483.2696174973705	HDAC2;SMAD3;SPI1;SP1;RARA;EP300;TCF4;TP53;NR2C1
SMAD3	11/375	4.045733613856342E-9	6.213090906993668E-8	0	0	13.76194735497061	265.95793025992367	EGR1;ZEB1;SPI1;HEY1;SP1;EP300;CTCF;E2F4;KLF4;TP53;ETS1
SMARCA4	9/219	6.65912126172535E-9	9.544740475139668E-8	0	0	18.796190476190475	353.88110914615726	HDAC2;ZEB1;SMAD3;SP1;NR1H2;TCF3;KLF4;TP53;NR2C1
JUN	9/248	1.9605184399211894E-8	2.6344466536440984E-7	0	0	16.491213389121338	292.6773444973775	EGR1;HDAC2;SMAD3;SPI1;SP1;MAZ;EP300;TCF4;ETS1
GATA1	6/69	3.0610450617033034E-8	3.8713216956835893E-7	0	0	39.45039682539682	682.5677819578864	HDAC2;SPI1;HEY1;SP1;EP300;TCF3
SOX2	6/70	3.341133345917115E-8	3.9907981631787767E-7	0	0	38.83203125	668.468979783093	HDAC2;ZEB1;SALL1;ZNF281;RAD21;TCF3
EGR1	5/35	3.622280778935662E-8	4.098896670900881E-7	0	0	67.74149659863946	1160.6541390640143	SMAD3;SP1;EP300;TCF4;TP53
E2F1	7/126	4.611623380894171E-8	4.957495134461234E-7	0	0	24.81476846057572	419.1735703029425	KLF6;HDAC2;SP2;SP1;SP3;E2F4;TP53
RXRA	7/139	9.072506656894355E-8	9.288518720153743E-7	0	0	22.356221792392006	362.51579760719414	SP1;NR1H2;BHLHE40;RARA;EP300;CTCF;NR2F6
HCFC1	6/87	1.242551382448682E-7	1.214311578302121E-6	0	0	30.655864197530864	487.45671448193764	HDAC2;SP1;E2F1;E2F4;NR2C1;GABPA
POU5F1	9/338	2.753579398316919E-7	2.573998133209294E-6	0	0	11.925227963525836	180.13288171916804	SOX2;ZNF143;HDAC2;SMAD3;SALL1;SP1;ZNF281;RAD21;KLF4
SP4	3/6	3.699459701706489E-7	3.3140993161120635E-6	0	0	391.03921568627453	5791.255148337859	SP1;SP3;E2F1
VDR	6/109	4.762080974204816E-7	4.095389637816142E-6	0	0	24.08131067961165	350.56153454465414	HDAC2;SMAD3;NR1H2;EP300;TCF3;TP53
CEBPA	6/113	5.892772226988824E-7	4.872869341548451E-6	0	0	23.17640186915888	332.4508627586219	HDAC2;SMAD3;SPI1;E2F1;EP300;E2F4
SREBF2	5/62	6.833246281676784E-7	5.4412887057796615E-6	0	0	35.60508413891873	505.46030616469096	EGR1;SMAD3;SP1;EP300;TP53
TP53	11/628	7.517312077795822E-7	5.737621545438535E-6	0	0	8.013983641777543	113.00427785958462	EGR1;KLF6;HDAC2;SMAD3;SP1;SP3;BHLHE40;E2F1;EP300;KLF4;ETS1
GATA2	4/27	7.95237880320795E-7	5.737621545438535E-6	0	0	69.29739130434783	973.2558429228667	SPI1;RARA;EP300;TCF3
SMAD2	9/384	8.0059835517747E-7	5.737621545438535E-6	0	0	10.437866666666666	146.5257957507704	HDAC2;ZEB1;SMAD3;SP1;EP300;TCF4;E2F4;KLF4;TP53
TAL1	5/65	8.669023713616239E-7	6.01238741428223E-6	0	0	33.81972789115646	472.0672427427643	HDAC2;SP1;EP300;TCF4;TCF3
CEBPD	4/29	1.0719289648459925E-6	6.9837796194511634E-6	0	0	63.7472	876.272247112891	SPI1;SMAD3;E2F1;EP300
ZBTB7A	4/29	1.0719289648459925E-6	6.9837796194511634E-6	0	0	63.7472	876.272247112891	HDAC2;SP1;SP3;TP53
BRCA1	9/418	1.6149675139329708E-6	1.0212294573399668E-5	0	0	9.553545232273839	127.40794900598591	HDAC2;SMAD3;SP1;E2F1;EP300;E2F4;TCF3;TP53;ETS1
ETS2	4/34	2.072229455747735E-6	1.2729409513878945E-5	0	0	53.10933333333333	695.0357642353956	SPI1;EP300;ETS1;TP53
KLF5	4/35	2.3349431338000573E-6	1.3944799271305898E-5	0	0	51.39354838709677	666.4470218391633	HDAC2;SMAD3;RARA;EP300
TCF12	4/36	2.6215669803211103E-6	1.523342975051456E-5	0	0	49.785	639.8237930020133	SMAD3;EP300;TCF4;TCF3
NR3C1	7/239	3.4993599268246467E-6	1.9799010112297343E-5	0	0	12.655722670579603	158.99296413835273	HDAC2;SMAD3;RARA;EP300;TP53;ETS1;NR2F6
FOXP3	8/350	4.188714591928606E-6	2.3091631724734623E-5	0	0	9.968980422069667	123.4470474586832	BCLAF1;HDAC2;SP2;RAD21;EP300;VEZF1;TCF3;PATZ1
NANOG	6/160	4.487004018302716E-6	2.41176465983771E-5	0	0	16.064935064935064	197.8288368821282	SOX2;HDAC2;SALL1;SP1;ZNF281;RAD21
GATA4	4/42	4.922077235184283E-6	2.519634775153859E-5	0	0	41.91157894736842	512.2340937550905	HDAC2;SMAD3;SP1;EP300
NFYA	4/42	4.922077235184283E-6	2.519634775153859E-5	0	0	41.91157894736842	512.2340937550905	SPI1;SP1;EP300;TP53
CRX	3/14	6.630973117408569E-6	3.3154865587042846E-5	0	0	106.60427807486631	1271.123719031806	SP1;SP3;EP300
RARA	6/175	7.509640316951011E-6	3.6694833366919714E-5	0	0	14.627958579881657	172.600007927649	HDAC2;SPI1;SP1;NR1H2;EP300;KLF4
ETS1	5/102	8.105945560225819E-6	3.872840656552335E-5	0	0	20.88049652850831	244.78023889196612	SMAD3;SPI1;SP1;EP300;TP53
MYBL2	4/48	8.454618671536899E-6	3.951615248653115E-5	0	0	36.18545454545455	422.6749734164555	HDAC2;E2F1;EP300;E2F4
NFATC1	4/50	9.96677383351584E-6	4.5592688812891606E-5	0	0	34.608695652173914	398.5625163721059	EGR1;HDAC2;SPI1;EP300
CTNNB1	8/398	1.0712813047487336E-5	4.7984475108537026E-5	0	0	8.720624303232999	99.79943542190205	EGR1;HDAC2;SMAD3;SALL1;EP300;TCF4;TCF3;KLF4
SMARCC1	5/114	1.3941373960899466E-5	6.117133472639561E-5	0	0	18.570492417150348	207.63016852302266	SOX2;HDAC2;SMAD3;SP1;TP53
SIN3B	4/55	1.4613279142014883E-5	6.21893088626552E-5	0	0	31.2078431372549	347.45501546061803	HDAC2;E2F4;TP53;KLF16
ZBTB7B	3/18	1.4751882567420537E-5	6.21893088626552E-5	0	0	78.16078431372549	869.4714956192169	SP1;SP3;EP300
FOS	6/199	1.561807154897584E-5	6.457471890441933E-5	0	0	12.79339378238342	141.58553653251747	HDAC2;SMAD3;SPI1;MAZ;EP300;ETS1
ESR1	11/871	1.7232981959785816E-5	6.961392560146658E-5	0	0	5.677285018929151	62.272353608216235	BCLAF1;HDAC2;SMAD3;SP2;SP1;SP3;RARA;EP300;TP53;NR2C1;NR2F6
MAFK	3/19	1.748442782548463E-5	6.961392560146658E-5	0	0	73.2720588235294	802.6367802962395	HDAC2;NR4A3;TP53
TRIM28	6/204	1.7973645174455072E-5	7.0260612954688E-5	0	0	12.467171717171718	136.2238487271524	NR4A3;E2F1;VEZF1;E2F4;TP53;NR2C1
ZEB1	3/20	2.0530658518209544E-5	7.882306395384022E-5	0	0	68.95847750865052	744.3096195574882	SOX2;SMAD3;EP300
HIF1A	5/126	2.2632139504737504E-5	8.536684199155375E-5	0	0	16.71867093945016	178.82523762500298	HDAC2;SMAD3;SP1;EP300;TP53
BCL11B	3/22	2.76286456378592E-5	1.0241653124378841E-4	0	0	61.693498452012385	647.57551940516	HDAC2;SP1;EP300
NFYB	3/25	4.102780324888895E-5	1.4950809658493432E-4	0	0	53.27272727272727	538.121700685003	SP1;EP300;TP53
CLOCK	3/28	5.810403466594087E-5	2.0820612421962146E-4	0	0	46.87294117647059	457.16470658834044	HDAC2;RARA;EP300
NFKB1	6/254	6.131137803356754E-5	2.160974799543774E-4	0	0	9.928427419354838	96.3012297242091	HDAC2;SPI1;SP1;E2F1;EP300;ETS1
TBP	5/160	7.093336569164453E-5	2.4597860683392864E-4	0	0	13.028966425279789	124.4757437830296	SPI1;SP1;E2F1;EP300;TP53
ESRRB	4/84	7.802383934952753E-5	2.662718327007685E-4	0	0	19.866	187.90248442222358	HDAC2;SALL1;SP1;RAD21
NR0B1	3/33	9.584978061048583E-5	3.219953567383508E-4	0	0	39.050980392156866	361.3281144382021	SALL1;SP1;ZNF281
REST	3/37	1.354635173682446E-4	4.4807163437188594E-4	0	0	34.449826989619375	306.83800146502136	HDAC2;SP1;SP3
SOX4	2/7	1.489595205901835E-4	4.8524692313468875E-4	0	0	153.3923076923077	1351.6678533430645	EP300;TP53
RUNX3	3/41	1.844353331875563E-4	5.918447259003673E-4	0	0	30.81733746130031	264.9739900911588	HDAC2;SMAD3;EP300
EPAS1	4/106	1.9225811730974154E-4	6.078749297293299E-4	0	0	15.563921568627451	133.1753676598531	SMAD3;SP1;EP300;ETS1
MITF	3/42	1.9824414556069952E-4	6.089695887101612E-4	0	0	30.025641025641026	255.99895252676032	SPI1;EP300;PATZ1
PADI4	2/8	1.982691684172618E-4	6.089695887101612E-4	0	0	127.82051282051282	1089.7829947402583	HDAC2;TP53
CCND1	4/108	2.0658109198991978E-4	6.255624616596162E-4	0	0	15.263076923076923	129.50442256785368	HDAC2;SP1;EP300;ETS1
RCOR1	3/43	2.127063548179621E-4	6.35164809525859E-4	0	0	29.273529411764706	247.52519555557132	HDAC2;TCF3;NR2C1
JUND	3/44	2.2783528402524269E-4	6.710217269236599E-4	0	0	28.558106169296988	239.51362732695242	SMAD3;EP300;ETS1
IRF1	3/45	2.4364414080655457E-4	7.078850036947193E-4	0	0	27.876750700280112	231.9290416731333	SPI1;SP2;EP300
SMARCC2	4/114	2.5416740647699895E-4	7.286132319007303E-4	0	0	14.426181818181819	119.41297141121433	SOX2;HDAC2;SMAD3;SP1
ATF3	3/46	2.6014601788853733E-4	7.337991554614248E-4	0	0	27.227086183310533	224.73965198529254	HDAC2;SMAD3;TP53
NR4A1	4/115	2.6280248823502193E-4	7.337991554614248E-4	0	0	14.295495495495496	117.85360596543724	SMAD3;EP300;TCF4;TP53
ELK1	3/49	3.139389889918914E-4	8.642061973679597E-4	0	0	25.44757033248082	205.26803923379185	EGR1;EP300;KLF4
LYL1	2/10	3.175455329863666E-4	8.642061973679597E-4	0	0	95.85576923076923	772.1076136521657	TCF4;TCF3
SALL4	3/53	3.9613967937853417E-4	0.0010646253883298106	0	0	23.40705882352941	183.3648992011029	ZNF143;HDAC2;SALL1
CREB1	4/134	4.700022835101715E-4	0.0012475369253665046	0	0	12.194461538461539	93.44339068425954	HDAC2;SP1;EP300;TP53
TCF4	3/57	4.910373723462056E-4	0.0012874760372491975	0	0	21.66884531590414	165.09472267079332	EGR1;EP300;TCF3
SMAD4	5/245	5.134205701480374E-4	0.0013299448503834702	0	0	8.378401360544217	63.46149081654985	HDAC2;SMAD3;SP1;EP300;CTCF
ZFPM2	2/15	7.345555571872974E-4	0.0018801124380389159	0	0	58.97337278106509	425.56630208545965	HDAC2;EP300
SUZ12	3/66	7.54888899706007E-4	0.0018872222492650175	0	0	18.564892623716155	133.4618986631724	HDAC2;RARA;CTCF
SPI1	3/66	7.54888899706007E-4	0.0018872222492650175	0	0	18.564892623716155	133.4618986631724	SMAD3;RARA;ETS1
PAX5	2/16	8.380409440356887E-4	0.0020244809322210455	0	0	54.75824175824176	387.9316753410176	EP300;ETS1
ZNF148	2/16	8.380409440356887E-4	0.0020244809322210455	0	0	54.75824175824176	387.9316753410176	EP300;TP53
SALL1	2/16	8.380409440356887E-4	0.0020244809322210455	0	0	54.75824175824176	387.9316753410176	SOX2;HDAC2
SREBF1	3/69	8.59406908989732E-4	0.002053027615919915	0	0	17.718360071301248	125.07865310256418	SP1;EP300;TP53
HNF4A	3/71	9.339394663847563E-4	0.0022065602777222265	0	0	17.195501730103807	119.95752127155309	SMAD3;SP1;TP53
ZBTB33	2/17	9.481382056935088E-4	0.0022157577633054827	0	0	51.1051282051282	355.7433227832543	CTCF;TCF3
MYC	9/957	9.66783309502643E-4	0.002235036683258798	0	0	4.0080168776371305	27.821794137850212	HDAC2;SMAD3;SP1;ZNF281;RAD21;EP300;CTCF;TP53;ZNF740
E2F4	3/73	0.001012452058887815	0.002315714815541279	0	0	16.702521008403362	115.17023113736498	HDAC2;SMAD3;E2F1
STAT5B	3/81	0.0013679049969355808	0.0030957849930647353	0	0	14.98340874811463	98.80771303890248	RARA;EP300;ETS1
STAT6	3/83	0.001467505818228904	0.0032866015720751495	0	0	14.60735294117647	95.30116119955792	EP300;TP53;ETS1
NR2F2	2/22	0.0015965780811344696	0.0035388070870506286	0	0	38.31923076923077	246.7717321748194	EP300;NR2F6
SMAD1	4/192	0.0017897040689315413	0.0038944577091961467	0	0	8.407659574468084	53.18437418678814	ZEB1;SMAD3;EP300;TP53
NCOA1	3/89	0.0017932619219089233	0.0038944577091961467	0	0	13.584131326949384	85.9022295713123	RARA;EP300;NR2F6
SRF	3/93	0.002033596518985928	0.004372232515819745	0	0	12.977777777777778	80.43560959243626	ZEB1;SP1;TCF3
KDM5A	2/25	0.002062757396852603	0.004391018221022868	0	0	33.31605351170568	206.01686820131164	HDAC2;RARA
MAX	3/96	0.0022263925859746345	0.0045678227490710465	0	0	12.557242251739405	76.69175823690271	SMAD3;EP300;TCF3
GATA3	2/26	0.0022307971565230693	0.0045678227490710465	0	0	31.92628205128205	194.92260392854524	SPI1;ETS1
MYCN	2/26	0.0022307971565230693	0.0045678227490710465	0	0	31.92628205128205	194.92260392854524	HDAC2;SP1
CHD7	2/26	0.0022307971565230693	0.0045678227490710465	0	0	31.92628205128205	194.92260392854524	SOX2;CTCF
BHLHA15	1/1	0.002699954962856341	0.005476323745416164	0	0	19946.0	117971.01964061815	TCF3
NEUROD1	2/30	0.0029652857587718945	0.005958284468560349	0	0	27.35989010989011	159.25595242218557	EP300;TCF4
BACH1	2/31	0.0031643223277353994	0.006241553215257898	0	0	26.415119363395224	152.0405762035586	PATZ1;TP53
NACC1	2/31	0.0031643223277353994	0.006241553215257898	0	0	26.415119363395224	152.0405762035586	SOX2;SALL1
ATF1	2/32	0.003369457930597071	0.0065857586825306385	0	0	25.533333333333335	145.3613534547405	SPI1;GABPA
SMARCB1	3/116	0.0038024832799163897	0.007299409867696641	0	0	10.324310255075481	57.52809878392557	SOX2;HDAC2;TP53
PPARG	3/116	0.0038024832799163897	0.007299409867696641	0	0	10.324310255075481	57.52809878392557	SP1;EP300;KLF4
TP63	3/120	0.004181442802921325	0.00794626874004736	0	0	9.969331322272499	54.603013856616144	SMAD3;EP300;TP53
PDX1	2/36	0.004250329791188123	0.00794626874004736	0	0	22.524886877828056	123.00297201006306	HDAC2;TCF3
TBL1XR1	2/36	0.004250329791188123	0.00794626874004736	0	0	22.524886877828056	123.00297201006306	SOX2;RARA
STAT3	4/246	0.004363639306097275	0.00808777974836995	0	0	6.513719008264463	35.39847288154587	HDAC2;SP1;BHLHE40;EP300
TCF7L2	2/37	0.004485466019866562	0.008181613621965168	0	0	21.88021978021978	118.30444220257537	HDAC2;EP300
TCF3	4/248	0.004490373987869255	0.008181613621965168	0	0	6.459672131147541	34.91982019544624	SOX2;HDAC2;EP300;TCF4
RARG	2/40	0.0052261580017125345	0.009286148515439628	0	0	20.149797570850204	105.86862582436255	SMAD3;NR2F6
MTA3	2/40	0.0052261580017125345	0.009286148515439628	0	0	20.149797570850204	105.86862582436255	HDAC2;RAD21
PPARD	2/40	0.0052261580017125345	0.009286148515439628	0	0	20.149797570850204	105.86862582436255	HDAC2;EP300
CIITA	2/41	0.005484708931963944	0.009587092848554862	0	0	19.63214990138067	102.20087423124885	HDAC2;TCF3
ERG	2/41	0.005484708931963944	0.009587092848554862	0	0	19.63214990138067	102.20087423124885	SOX2;SPI1
AHR	2/42	0.005749033228634364	0.009968081807712808	0	0	19.140384615384615	98.73995330132682	SP1;EP300
USF1	2/43	0.006019099019507137	0.010232289861908966	0	0	18.672607879924954	95.46963998767033	EP300;TCF3
LMO2	2/43	0.006019099019507137	0.010232289861908966	0	0	18.672607879924954	95.46963998767033	SP1;TCF3
SMC3	3/137	0.006044189825406691	0.010232289861908966	0	0	8.69710272168569	44.43052189846708	HDAC2;RAD21;CTCF
TFAP2A	2/46	0.006863428490169976	0.011528415042082381	0	0	17.396853146853147	86.66326216943813	EP300;TP53
JUNB	2/48	0.007454443516934324	0.012424072528223874	0	0	16.638795986622075	81.51254605805195	SMAD3;EP300
MEF2C	2/50	0.008067670084263163	0.013342685139358308	0	0	15.943910256410257	76.8479024006269	SP1;EP300
CTCF	2/60	0.011458377583512933	0.018805734201948705	0	0	13.188328912466844	58.93909228909847	SMAD3;RAD21
UBTF	2/61	0.011826479837562527	0.019262827008151087	0	0	12.964146023468057	57.52728575404862	EP300;CTCF
KDM5B	2/63	0.012578132119592557	0.020333070719642105	0	0	12.53783102143758	54.862984800252825	HDAC2;NR4A3
PPARGC1A	2/64	0.012961623339762796	0.020796634463052247	0	0	12.334987593052109	53.60492452410381	EP300;TP53
KLF9	1/5	0.013428510503704935	0.0213861463577523	0	0	94.06603773584905	405.45991459490074	SP1
AIRE	2/68	0.014546008060224129	0.022995527448148437	0	0	11.585081585081586	49.00997728474978	HDAC2;RAD21
STAT1	3/196	0.015941665935905514	0.02489190551385747	0	0	6.020420603474551	24.91743177263826	E2F1;EP300;TP53
HOXB4	1/6	0.016092906355470643	0.02489190551385747	0	0	75.24905660377358	310.73170127161313	EP300
RCOR2	1/6	0.016092906355470643	0.02489190551385747	0	0	75.24905660377358	310.73170127161313	HDAC2
ESR2	4/365	0.016859036303256986	0.025890662894287517	0	0	4.34016620498615	17.720327825833923	BCLAF1;SMAD3;SP1;EP300
NOTCH1	3/204	0.017717066129697825	0.027015384524007324	0	0	5.778460637986538	23.305842977102646	SMAD3;HEY1;EP300
HDAC8	2/77	0.018397990686682745	0.02780208096481927	0	0	10.19025641025641	40.71531033833909	SP3;E2F4
SP2	1/7	0.018750240650692064	0.02780208096481927	0	0	62.704402515723274	249.34710980306107	E2F1
TBX3	1/7	0.018750240650692064	0.02780208096481927	0	0	62.704402515723274	249.34710980306107	HDAC2
KLF2	1/7	0.018750240650692064	0.02780208096481927	0	0	62.704402515723274	249.34710980306107	EP300
CCNE1	2/82	0.020703842997872073	0.03048853592152394	0	0	9.550961538461538	37.03324156775939	E2F1;E2F4
LMX1B	1/8	0.021400531511072123	0.03130009710803066	0	0	53.74393530997305	206.60993448840276	TCF3
GTF2B	2/86	0.02263084804050612	0.0328758941128974	0	0	9.094322344322345	34.453306781873835	SP1;EP300
TET1	1/9	0.024043797089670676	0.03446277582852797	0	0	47.02358490566038	175.29819860584723	HDAC2
POU3F2	1/9	0.024043797089670676	0.03446277582852797	0	0	47.02358490566038	175.29819860584723	EP300
RAD21	3/237	0.026168382575414557	0.03701448851127717	0	0	4.955253896430367	18.052997689137857	SOX2;CTCF;KLF4
ATF2	3/237	0.026168382575414557	0.03701448851127717	0	0	4.955253896430367	18.052997689137857	SMAD3;EP300;ETS1
HEY1	1/12	0.03193162350337226	0.04457986398198075	0	0	34.19382504288165	117.76895070161899	SMAD3
MBD4	1/12	0.03193162350337226	0.04457986398198075	0	0	34.19382504288165	117.76895070161899	HDAC2
ZNF217	1/13	0.03454696920988076	0.047612810129002335	0	0	31.342767295597483	105.4820602978719	HDAC2
DLX4	1/13	0.03454696920988076	0.047612810129002335	0	0	31.342767295597483	105.4820602978719	SP1
CDKN2AIP	1/14	0.03715538012271022	0.05055953624292846	0	0	28.93033381712627	95.25736807729457	RAD21
GABPB1	1/14	0.03715538012271022	0.05055953624292846	0	0	28.93033381712627	95.25736807729457	GABPA
EZH2	2/115	0.03863062032864137	0.05190989606661184	0	0	6.750510551395507	21.964203984709997	HDAC2;RARA
YAP1	2/115	0.03863062032864137	0.05190989606661184	0	0	6.750510551395507	21.964203984709997	SMAD3;EP300
FOXA2	1/15	0.03975687424498529	0.052763752855998984	0	0	26.862533692722373	86.63093286520242	EP300
DACH1	1/15	0.03975687424498529	0.052763752855998984	0	0	26.862533692722373	86.63093286520242	SMAD3
GTF3C2	1/16	0.04235146953793646	0.05552174360156305	0	0	25.07044025157233	79.26651858378708	EP300
RCOR3	1/16	0.04235146953793646	0.05552174360156305	0	0	25.07044025157233	79.26651858378708	HDAC2
CDX2	1/17	0.04493918392504326	0.05785583559212156	0	0	23.50235849056604	72.91477862029602	EP300
RFX5	1/17	0.04493918392504326	0.05785583559212156	0	0	23.50235849056604	72.91477862029602	HDAC2
TFAP2C	1/17	0.04493918392504326	0.05785583559212156	0	0	23.50235849056604	72.91477862029602	TP53
PRDM1	1/19	0.05009404144634451	0.06410844589859564	0	0	20.88888888888889	62.538267077796924	HDAC2
SETDB1	2/136	0.05220851742907101	0.06621147570980572	0	0	5.686567164179104	16.78964430401377	HDAC2;BHLHE40
MTF2	1/20	0.05266122021570595	0.06621147570980572	0	0	19.788480635551142	58.25483230121243	SMAD3
PHF8	1/20	0.05266122021570595	0.06621147570980572	0	0	19.788480635551142	58.25483230121243	RARA
FLI1	1/21	0.05522158934050639	0.06902698667563298	0	0	18.79811320754717	54.4468793612393	SMAD3
BRF1	1/22	0.05777516652888407	0.07138885519373607	0	0	17.902066486972146	51.04230466405881	TP53
CEBPZ	1/22	0.05777516652888407	0.07138885519373607	0	0	17.902066486972146	51.04230466405881	TP53
PHC1	1/25	0.06539532289924611	0.07898873271538154	0	0	15.66194968553459	42.71490645721221	HDAC2
WT1	1/25	0.06539532289924611	0.07898873271538154	0	0	15.66194968553459	42.71490645721221	TP53
USF2	1/25	0.06539532289924611	0.07898873271538154	0	0	15.66194968553459	42.71490645721221	EP300
BCOR	1/25	0.06539532289924611	0.07898873271538154	0	0	15.66194968553459	42.71490645721221	SP1
BHLHE40	1/26	0.0679219085557706	0.0806807201076833	0	0	15.034716981132075	40.43431729208938	TP53
KDM6A	1/26	0.0679219085557706	0.0806807201076833	0	0	15.034716981132075	40.43431729208938	ZNF281
JARID2	1/26	0.0679219085557706	0.0806807201076833	0	0	15.034716981132075	40.43431729208938	BCLAF1
STAT4	1/28	0.07295498516431843	0.08618308686993661	0	0	13.919636617749825	36.44039305811433	EP300
IRF4	1/29	0.07546151096326235	0.08817513509294242	0	0	13.421832884097036	34.683795119411634	SPI1
E2F6	1/29	0.07546151096326235	0.08817513509294242	0	0	13.421832884097036	34.683795119411634	E2F1
TAF1	2/171	0.07792739997228129	0.08963474736836279	0	0	4.500910332271279	11.486222596526716	CTCF;TP53
LMO4	1/30	0.07796138492038997	0.08963474736836279	0	0	12.958360442420298	33.06379625497651	HDAC2
E2F2	1/30	0.07796138492038997	0.08963474736836279	0	0	12.958360442420298	33.06379625497651	SP1
RNF2	2/175	0.08108034913570858	0.09272486736264544	0	0	4.395953757225434	11.044019030904304	HDAC2;TP53
IRF8	1/32	0.08294124653654229	0.09435115346749522	0	0	12.121119902617163	30.177016409267804	SPI1
CUX1	1/33	0.08542126868690271	0.09615483124441927	0	0	11.741745283018869	28.886573969871716	SOX2
NR4A2	1/33	0.08542126868690271	0.09615483124441927	0	0	11.741745283018869	28.886573969871716	RARA
NR2C2	1/34	0.08789470799411693	0.09842376155591219	0	0	11.385363064608347	27.684827361193253	NR2C1
MEIS1	1/36	0.09282190658441714	0.10340264204999836	0	0	10.733692722371968	25.514766917792368	ETS1
MEF2A	1/37	0.09527570001266539	0.10558904898310856	0	0	10.435010482180294	24.532506003993255	EP300
CREM	1/39	0.10016376022168876	0.11043696639827222	0	0	9.88480635551142	22.74443362032508	SPI1
GLI1	1/41	0.10502589777658966	0.11520697970391212	0	0	9.389622641509433	21.159968270478103	HDAC2
IKZF1	1/42	0.10744728772228493	0.11726480639741757	0	0	9.160147261849977	20.434043374832473	HDAC2
ELF1	1/45	0.1146729436907043	0.12451860047222942	0	0	8.534305317324185	18.482498984150986	SP1
BCL3	1/46	0.11706871342498994	0.12648127329835596	0	0	8.344234800838574	17.89833543767599	EP300
STAT2	1/50	0.1265883240687765	0.1360824483739347	0	0	7.661532537543319	15.834970375184442	EP300
ESRRA	1/51	0.1289524422762036	0.13793420442479487	0	0	7.507924528301887	15.378568956697888	SP1
HNF1A	1/52	0.1313102795600359	0.1397609411158798	0	0	7.360340362560119	14.942905667794825	EP300
POLR2A	2/239	0.1361326297248346	0.14417987877260804	0	0	3.1984745212593313	6.378160083387866	EP300;CTCF
CHD1	1/65	0.16139799477052716	0.17010082782187913	0	0	5.861438679245283	10.690572191682948	BCLAF1
BMI1	1/70	0.1726957796087883	0.1811199639799487	0	0	5.4353295050587915	9.545654667103056	TP53
IRF3	1/75	0.18384414020581766	0.19187616574879027	0	0	5.066802651708312	8.581476165166299	EP300
HTT	2/293	0.18733923569496114	0.19457939939331712	0	0	2.597805974094634	4.350894318913408	SP1;TP53
GFI1B	1/80	0.19484501606792146	0.201402300262515	0	0	4.744924767136374	7.760565621373132	HDAC2
MYB	1/84	0.20354081521299808	0.20938409220475876	0	0	4.51534439645374	7.187925847991766	EP300
EED	1/91	0.21853719627074508	0.22374046284861995	0	0	4.1626834381551365	6.330604994411687	HDAC2
CDKN1B	1/93	0.2227707347342889	0.22699387662498632	0	0	4.071780147662018	6.1142344674930955	CTCF
SIRT3	1/95	0.22698176066319722	0.23019376671031794	0	0	3.9847450822962664	5.908921158911916	EP300
STAT5A	1/96	0.22907886813447037	0.23122984342211797	0	0	3.942601787487587	5.810168619029014	EP300
HSF1	1/109	0.25583838254966373	0.2570338890101762	0	0	3.46575821104123	4.724554005177176	HDAC2
CBX3	1/114	0.26588590923208694	0.26588590923208694	0	0	3.3115712138921354	4.38679856497224	VEZF1
