Term	Overlap	P-value	Adjusted P-value	Old P-value	Old Adjusted P-value	Odds Ratio	Combined Score	Genes
CREB1 CHEA	14/1444	1.439087942474627E-6	1.2520065099529257E-4	0	0	6.045780885780886	81.32482774164212	EGR1;SREBF1;ATF2;ZNF263;SREBF2;ELK4;KLF6;NR4A3;CREB1;SP2;SP1;KLF9;E2F1;ZNF410
ATF2 ENCODE	19/2852	3.1031116885987486E-6	1.3498535845404556E-4	0	0	4.593533356865514	58.26026671019943	EGR1;SREBF1;ATF2;ZNF263;JUN;NR1H2;MAZ;VEZF1;SMC3;SREBF2;ELK4;KLF7;KLF6;NR4A3;CREB1;SP2;KLF9;E2F6;ZNF410
NFYB ENCODE	20/3715	3.980122255356694E-5	0.0011542354540534413	0	0	3.667343256653135	37.156102353158616	DLX1;ATF2;ZNF263;JUN;SMAD3;KLF13;MAZ;POU3F1;SMC3;KLF15;POU3F2;SREBF2;KLF7;KLF6;NR4A3;SP2;SP1;KLF9;SP3;E2F1
BRCA1 ENCODE	17/3218	2.662072945574338E-4	0.004703968007286425	0	0	3.2956714915477803	27.127447353100678	EGR1;SREBF1;ATF2;ZNF263;JUN;SMAD3;NR1H2;SMC3;SREBF2;ELK4;KLF6;NR4A3;CREB1;SP1;PATZ1;ZNF410;ZNF740
IRF1 ENCODE	5/263	2.703429889245072E-4	0.004703968007286425	0	0	9.788312462731067	80.41900425121172	ELK4;JUN;CREB1;SP2;POU3F2
SPI1 CHEA	9/1056	4.099055780627096E-4	0.0050053884708466554	0	0	4.644044207941056	36.22161160941784	ELK4;KLF7;ZNF263;ELF1;SP1;KLF9;E2F4;PATZ1;KLF16
TCF3 ENCODE	8/840	4.327491875020344E-4	0.0050053884708466554	0	0	5.107905982905983	39.56253105372711	EGR1;KLF7;KLF6;SMAD3;KLF13;SP3;SREBF2;NR2F6
SRF ENCODE	5/299	4.865399835829668E-4	0.0050053884708466554	0	0	8.574045002616431	65.404456982554	EGR1;KLF7;NR4A3;EGR4;NR2F6
PML ENCODE	11/1596	5.26794851458138E-4	0.0050053884708466554	0	0	3.8635120925341746	29.16449126560075	ELK4;SREBF1;ZNF263;JUN;KLF6;CREB1;SP3;MAZ;VEZF1;CTCF;ZNF410
EGR1 CHEA	5/315	6.162852906516101E-4	0.0050053884708466554	0	0	8.124896608767576	60.05761536331995	EGR1;JUN;SMAD3;SP1;KLF9
UBTF ENCODE	11/1631	6.32865208957623E-4	0.0050053884708466554	0	0	3.7728395061728395	27.787917863097398	EGR1;SMAD3;KLF13;CREB1;ZNF281;MAZ;VEZF1;CTCF;PATZ1;ZFX;NR2F6
ZMIZ1 ENCODE	8/914	7.556064210851026E-4	0.005103576035192073	0	0	4.6725533480500365	33.58626638690198	ELK4;EGR1;KLF7;KLF6;KLF13;CREB1;PATZ1;ZFX
CREB1 ENCODE	13/2238	7.626033156034131E-4	0.005103576035192073	0	0	3.341833997825299	23.990266212980774	EGR1;ZNF263;EGR4;NR1H2;CTCF;SREBF2;ELK4;NR4A3;CREB1;SP2;SP1;KLF9;ZNF410
CEBPD ENCODE	7/734	0.0010218524321901857	0.0063500829714675825	0	0	5.004015019145693	34.45833892081493	JUN;KLF6;SP3;MAZ;CTCF;KLF3;SREBF2
TRIM28 CHEA	4/210	0.0011541417638564603	0.00669402223036747	0	0	9.587378640776699	64.85284751846092	EGR1;JUN;CREB1;SALL1
NFE2L2 CHEA	8/1022	0.0015526439666390186	0.008442501568599664	0	0	4.151216305062459	26.849220280771267	KLF12;KLF6;SMAD3;KLF9;SP3;KLF4;E2F6;ZNF410
ZBTB7A ENCODE	12/2184	0.002086264515545439	0.010676765461909009	0	0	3.070441988950276	18.951935108456983	ELK4;EGR1;CREB1;SP3;MAZ;VEZF1;SMC3;PATZ1;KLF3;SREBF2;KLF16;ZNF740
NFYA ENCODE	12/2250	0.0026858544151220115	0.01298162967308972	0	0	2.9688337801608577	17.574772722308907	KLF7;ATF2;ZNF263;JUN;KLF6;KLF13;SP2;SP1;KLF9;SP3;E2F1;SREBF2
FOXA2 ENCODE	4/316	0.005048607761194511	0.023117309222311706	0	0	6.296153846153846	33.298108483000206	KLF7;ATF2;KLF6;KLF9
KLF4 CHEA	7/987	0.005404643557933907	0.023510199477012494	0	0	3.6633204633204635	19.12435267112717	SALL1;SP1;KLF9;CTCF;KLF4;KLF3;KLF16
RUNX1 CHEA	8/1294	0.006603632178822799	0.027357904740837314	0	0	3.226196647658545	16.195944163457057	EGR1;KLF12;KLF6;SMAD3;KLF13;E2F4;SREBF2;ZNF740
FOXP2 ENCODE	3/178	0.007024315387105171	0.027777974485370453	0	0	8.270801393728224	41.00975572210357	MAZ;SREBF2;ZNF740
FOXA1 ENCODE	3/205	0.010321989216961109	0.03766330144090448	0	0	7.155517990823473	32.725609719001916	KLF9;MAZ;ZFX
TP63 CHEA	8/1399	0.010389876259559857	0.03766330144090448	0	0	2.965891844396517	13.54500081714399	ELK4;EGR1;DLX1;KLF6;SP1;ZNF281;KLF3;NR2F6
USF1 ENCODE	8/1423	0.011447520874086252	0.039837372641820155	0	0	2.91181782489203	13.015773526529324	ZNF263;KLF6;E2F1;SMC3;KLF15;KLF3;E2F6;KLF16
CHD1 ENCODE	5/655	0.014046218320993968	0.04700080745871059	0	0	3.8078895463510847	16.242179984105743	JUN;CREB1;MAZ;SMC3;ZFX
NELFE ENCODE	3/234	0.014717991101276926	0.0473048090940167	0	0	6.248020272410517	26.358427210439352	ELK4;EGR1;KLF6
EZH2 CHEA	3/237	0.015224536260143307	0.0473048090940167	0	0	6.166979362101313	25.807864619744162	EGR4;POU3F1;POU3F3
SP1 ENCODE	5/707	0.01894528735747902	0.05612026236011749	0	0	3.5163269778654396	13.946456293942989	KLF6;SP2;SP1;E2F6;SREBF2
E2F6 ENCODE	13/3245	0.019351814606937065	0.05612026236011749	0	0	2.169953688917279	8.560400220324636	SREBF1;ZNF263;MAZ;CTCF;KLF4;SMC3;KLF7;KLF9;SP3;E2F1;PATZ1;E2F6;ZNF740
TCF3 CHEA	6/1006	0.022000208598198456	0.06001317350131584	0	0	2.9930526315789474	11.423593987513275	ELK4;KLF9;SP3;E2F1;PATZ1;E2F6
BCL3 ENCODE	3/273	0.022073810943012723	0.06001317350131584	0	0	5.334959349593496	20.344138715473175	SP3;MAZ;VEZF1
NFIC ENCODE	3/279	0.023354565964024333	0.0615711284506096	0	0	5.217391304347826	19.601544884273395	EGR1;JUN;KLF9
SUZ12 CHEA	8/1684	0.028737622802957993	0.07233826173316238	0	0	2.4237602757889154	8.603253719681854	DLX1;JUN;NR4A3;EGR4;FOXG1;POU3F1;POU3F2;POU3F3
PPARG CHEA	4/535	0.029581245206466412	0.07233826173316238	0	0	3.65819209039548	12.879084945285655	KLF7;JUN;KLF6;SP3
EGR1 ENCODE	4/537	0.029933073820618918	0.07233826173316238	0	0	3.644090056285178	12.786351347687662	KLF13;E2F6;ZNF410;ZNF740
RFX5 ENCODE	4/559	0.033968979322429635	0.07987300543382103	0	0	3.4956756756756757	11.823450208170463	KLF9;E2F1;POU3F2;E2F6
BCLAF1 ENCODE	5/851	0.03805558312147098	0.08466570998836757	0	0	2.895981087470449	9.466115025920173	EGR1;JUN;KLF6;NR1H2;ZNF410
TCF7L2 ENCODE	4/583	0.038720824632781134	0.08466570998836757	0	0	3.3466321243523316	10.881165124369417	ELK4;ATF2;KLF6;SMAD3
SMAD4 CHEA	4/584	0.038926763213042566	0.08466570998836757	0	0	3.340689655172414	10.844123374934814	SREBF1;KLF7;KLF6;KLF3
BHLHE40 ENCODE	3/348	0.04093826470314703	0.0868690007115559	0	0	4.159278897136797	13.291766336445823	ZNF263;PATZ1;KLF16
SALL4 CHEA	3/355	0.04301203693651465	0.0890963622256375	0	0	4.075110864745011	12.821420551354498	SALL1;SP3;E2F1
FOS ENCODE	4/637	0.05075439702694992	0.10268912886848007	0	0	3.05260663507109	9.099078668655958	KLF6;SP2;SP1;SP3
IRF3 ENCODE	4/663	0.05721098865991359	0.11312172757755642	0	0	2.9282245827010622	8.377677733166223	KLF6;SP2;SP1;E2F4
REST CHEA	6/1280	0.05992327027854278	0.11585165587184937	0	0	2.315376352970338	6.517067509392237	KLF7;KLF6;KLF13;EGR4;POU3F2;KLF3
FOSL2 ENCODE	2/196	0.06913842205535657	0.1307617982351309	0	0	4.850760922925871	12.959509551624263	ELF1;VEZF1
YY1 ENCODE	10/2753	0.07224365998615247	0.13372762593181414	0	0	1.8456606120392014	4.849862151552848	CREB1;SP1;MAZ;VEZF1;CTCF;SMC3;ZFX;E2F6;SREBF2;ZNF740
ZNF384 ENCODE	4/730	0.07580588571508895	0.1373981678585987	0	0	2.6487603305785123	6.832687429058813	SP1;SP3;PATZ1;ZFX
MAX ENCODE	8/2073	0.08000329323783874	0.1419980006358004	0	0	1.9253161151466236	4.862746806456866	ZNF263;SMAD3;KLF9;MAZ;E2F1;SMC3;E2F6;KLF16
GABPA ENCODE	8/2082	0.08160804634241402	0.1419980006358004	0	0	1.9159969998928532	4.801157808883466	ELK4;ZNF263;SP2;NR1H2;SP3;E2F4;ZNF410;ZNF740
GATA2 CHEA	4/772	0.08886192066190832	0.1479480445789562	0	0	2.4984375	6.047896618768173	JUN;KLF6;KLF9;SREBF2
SOX2 CHEA	4/775	0.08983452728580488	0.1479480445789562	0	0	2.4883268482490273	5.9963349202540215	KLF12;SALL1;KLF9;SP3
RELA ENCODE	3/484	0.0901292685366055	0.1479480445789562	0	0	2.9625779625779627	7.129474446955627	JUN;KLF6;CREB1
STAT5A ENCODE	2/233	0.09299409262745885	0.14900865904397606	0	0	4.066171923314781	9.658050061828405	EGR1;NR1H2
CTCF ENCODE	7/1790	0.0942008764071113	0.14900865904397606	0	0	1.9282866714162283	4.555241341646824	EGR1;JUN;SP1;MAZ;CTCF;PATZ1;KLF16
TAF1 ENCODE	11/3346	0.10572476435130332	0.16425097318863194	0	0	1.6612693653173414	3.7327329240851337	ELK4;JUN;KLF6;CREB1;SP2;SP3;MAZ;SMC3;E2F6;ZNF410;ZNF740
POU5F1 CHEA	2/261	0.11240891394291581	0.171571500228661	0	0	3.621437764294907	7.915057976585267	SALL1;PATZ1
SPI1 ENCODE	6/1540	0.11944048733517314	0.1791607310027597	0	0	1.8961778631716188	4.029258586485426	ELF1;MAZ;E2F1;CTCF;E2F4;PATZ1
MYC CHEA	3/573	0.13126207357512734	0.19355593900061152	0	0	2.4885750962772786	5.053199535929604	SREBF1;CTCF;PATZ1
NANOG CHEA	3/595	0.1423241296832691	0.20615265823789664	0	0	2.393375082399473	4.666239467180047	SALL1;SP2;KLF9
PBX3 ENCODE	5/1269	0.144543817844962	0.20615265823789664	0	0	1.8958941901979878	3.6669865567228817	SP2;SP1;ZNF281;SP3;MAZ
USF2 ENCODE	4/965	0.16129597756992042	0.22633467820295286	0	0	1.9765868886576483	3.6063109086110687	ATF2;MAZ;SMC3;KLF16
TAF7 ENCODE	3/640	0.16588875201469325	0.22908446706790972	0	0	2.219129302752996	3.9865279486828773	EGR1;JUN;KLF6
KAT2A ENCODE	1/90	0.18017179334329875	0.24492103157604672	0	0	5.191272537235433	8.89703376024248	EGR1
RCOR1 ENCODE	3/702	0.20011338161456851	0.2678440646225763	0	0	2.0158065529153144	3.243173037189251	MAZ;PATZ1;ZNF740
E2F4 ENCODE	3/710	0.204655114010825	0.2697726502869966	0	0	1.99216890330148	3.1604346950068924	MAZ;E2F1;CTCF
STAT3 ENCODE	3/725	0.21323811318071567	0.27689128129436213	0	0	1.9492601851226268	3.0122811091966506	EGR1;JUN;KLF6
IRF8 CHEA	1/121	0.23455372221340634	0.3000907916553875	0	0	3.844186046511628	5.574341262078144	ZFX
SMC3 ENCODE	4/1181	0.26071483577780286	0.32492025985540235	0	0	1.5954970263381478	2.1448714096927626	EGR1;JUN;PATZ1;KLF16
GATA1 CHEA	3/807	0.2614300941365306	0.32492025985540235	0	0	1.7429923552966873	2.338378251344186	ELF1;SMAD3;KLF9
ERG CHEA	1/144	0.2726073423089052	0.33403998282922187	0	0	3.2221499430801757	4.187901828893524	DLX1
ETS1 ENCODE	1/156	0.2917209679014977	0.35249616954764307	0	0	2.9708927231807953	3.660013640226411	ZNF740
MYOD1 ENCODE	1/166	0.3072732956921061	0.36620242089333194	0	0	2.789429175475687	3.291575837390745	SREBF2
HDAC2 ENCODE	1/175	0.32098470300692955	0.3758347446495474	0	0	2.643945469125902	3.0044786619349564	CTCF
STAT3 CHEA	1/177	0.3239954695254719	0.3758347446495474	0	0	2.6136363636363638	2.9456354731106615	KLF4
SP2 ENCODE	3/994	0.3750261632646648	0.4293062658424452	0	0	1.4002854962959317	1.373343284636211	SP2;SP1;SP3
NRF1 ENCODE	5/1882	0.3998122160175305	0.4517358804353916	0	0	1.234853762823928	1.1320649086078178	SREBF1;ZNF263;ZNF281;E2F6;ZNF740
FLI1 ENCODE	2/650	0.4210559542199692	0.4696393335530426	0	0	1.4188712522045854	1.2273088006249642	SP2;NR1H2
YY1 CHEA	1/332	0.5216097149447299	0.5744309519011582	0	0	1.3788379118948921	0.8973968593472045	SP1
RAD21 ENCODE	3/1265	0.5328148608904111	0.5787115357171992	0	0	1.0838777009006224	0.6823890973802816	ELK4;JUN;SP1
HNF4A ENCODE	3/1276	0.5388003953229096	0.5787115357171992	0	0	1.0738796390320542	0.6640980157524403	ELK4;PATZ1;NR2F6
E2F1 CHEA	2/859	0.5691957443215495	0.6039028019021319	0	0	1.0612324276268268	0.5980372537904816	KLF9;SP3
ELF1 ENCODE	5/2483	0.6522209131064624	0.6813479641866498	0	0	0.9042652262991246	0.38645759367780846	SP2;NR1H2;SP3;E2F4;ZNF410
MYC ENCODE	3/1515	0.6578532068009032	0.6813479641866498	0	0	0.8925667828106852	0.37378328216200574	ZNF263;MAZ;KLF16
AR CHEA	2/1095	0.7024063860709776	0.7189335951550005	0	0	0.8218097852132619	0.29029867305136076	KLF6;FOXG1
ZBTB33 ENCODE	1/702	0.7927591361529376	0.801977265643088	0	0	0.6387884417609395	0.14834957099146923	ATF2
SIN3A ENCODE	1/1131	0.9230149291112169	0.9230149291112169	0	0	0.38744597653838236	0.031038246835137374	SMC3
