rs1010031
rs10163638
rs10447541
rs10463297
rs10762181
rs10779702
rs10823108
rs1089266
rs11130029
rs112036953
rs11717830
rs11764061
rs11958868
rs12102548
rs1213048
rs12257551
rs12445641
rs12574292
rs12666575
rs13225225
rs141253408
rs1467013
rs1540319
rs155807
rs1656373
rs17451403
rs1833281
rs1879901
rs1933805
rs2008263
rs2141576
rs222901
rs2372774
rs2446665
rs2486143
rs250427
rs251352
rs2530247
rs2536956
rs2611292
rs2708633
rs314284
rs34471147
rs34781508
rs35148765
rs3740540
rs3757440
rs4680445
rs56360035
rs581449
rs59602208
rs60547325
rs62423594
rs62473069
rs67019848
rs67446837
rs679232
rs6794461
rs6977733
rs70988775
rs7231363
rs73046323
rs73158361
rs73172122
rs7481006
rs7525653
rs7608024
rs7638606
rs7653558
rs76956000
rs7759938
rs7787274
rs77910749
rs932658
