Term	Overlap	P-value	Adjusted P-value	Old P-value	Old Adjusted P-value	Odds Ratio	Combined Score	Genes
STAT3 CHEA	4/177	5.104312316384554E-4	0.019267550332470386	0	0	12.038332826285366	91.25362823170865	REST;KLF4;ETV5;ETV6
ZNF384 ENCODE	7/730	7.422145346470429E-4	0.019267550332470386	0	0	5.32088520055325	38.34161888618312	REST;SP1;SP3;ZBTB7A;ETV4;ETV5;ELK3
CEBPD ENCODE	7/734	7.66505656974649E-4	0.019267550332470386	0	0	5.29050894085282	37.95235722904666	KLF6;SP3;CTCF;ZNF787;ZBTB7A;GABPA;ETV6
SOX2 CHEA	7/775	0.0010538646367487785	0.019267550332470386	0	0	4.997395833333333	34.25860400521003	REST;SP3;ETV1;ETS1;ETV5;FLI1;ETV6
GATA1 CHEA	7/807	0.0013325443330362097	0.019267550332470386	0	0	4.7895	31.709675649266007	ELF1;SPI1;ELF3;ELF4;ERG;FLI1;KLF1
ZBTB7A ENCODE	12/2184	0.001344247697614213	0.019267550332470386	0	0	3.2755064456721916	21.657389051413887	ELK4;REST;SP3;ERF;ZNF787;ETV3;ZBTB7A;ETV4;ETV5;ETS2;ZNF740;ELK3
POU5F1 CHEA	4/261	0.002148808544316372	0.026399647830172568	0	0	8.06921974196191	49.56793996832089	REST;RARG;ETV1;ETV5
KLF4 CHEA	7/987	0.004143419163146243	0.043945925040991145	0	0	3.873061224489796	21.248519969310937	RARG;SP1;FEV;CTCF;KLF4;ZBTB7A;IRF9
TCF3 CHEA	7/1006	0.004598992155452562	0.043945925040991145	0	0	3.7955955955955956	20.42758462153869	ELK4;REST;RARG;SP3;ETV1;ETV4;ETV5
TP63 CHEA	8/1399	0.007827903629276838	0.06731997121178081	0	0	3.140694379836766	15.2325578815784	ELK4;KLF6;EHF;ELF3;SP1;ERG;ETS1;ELK3
CREB1 CHEA	8/1444	0.009407460902914435	0.07354923978642194	0	0	3.0349008684253644	14.161612828134968	ELK4;KLF6;NR4A3;SP1;ZNF787;ETV3;ZBTB7A;GABPA
SPI1 ENCODE	8/1540	0.013571488174908039	0.09726233192017428	0	0	2.8299800337889724	12.16830327885216	ELF1;ELF4;ELF5;ERF;ETV1;CTCF;ZBTB7A;ETV6
NFE2L2 CHEA	6/1022	0.019077302537120484	0.12620369370710474	0	0	3.107283464566929	12.302530698978282	KLF6;EHF;SP3;KLF4;ETS1;ETS2
ZEB1 ENCODE	2/106	0.02087360793036216	0.1282235915722247	0	0	9.545192307692307	36.93292334284127	ETV7;ZNF571
IRF8 CHEA	2/121	0.026699647463215532	0.14416525340444541	0	0	8.335714285714285	30.20116741767916	ELF4;IRF9
EGR1 CHEA	3/315	0.02826773804610758	0.14416525340444541	0	0	4.843688362919132	17.272757983328805	ELF2;SP1;ETV5
FOXA2 ENCODE	3/316	0.028497782649715957	0.14416525340444541	0	0	4.827967559596953	17.177565774444574	KLF6;ETV4;ETV5
TCF7L2 ENCODE	4/583	0.03339450466797842	0.15955152230256356	0	0	3.5231342605217706	11.976415502635641	ELK4;KLF6;ETV4;GABPA
NANOG CHEA	4/595	0.035593967558208324	0.1611095373687324	0	0	3.449461216493009	11.505950761017932	REST;RARG;ETV1;ETV5
ETS1 ENCODE	2/156	0.042470147030749555	0.1799814149513802	0	0	6.42987012987013	20.311663147532183	ZBTB7A;ZNF740
FOS ENCODE	4/637	0.04394895016254633	0.1799814149513802	0	0	3.2136027271971397	10.04162973783247	KLF6;SP1;SP3;ETV5
RAD21 ENCODE	6/1265	0.04722249703082853	0.18286725028867795	0	0	2.47537728355838	7.557041851404196	ELK4;ELF3;SP1;ELF5;IRF9;ETS2
HNF4A ENCODE	6/1276	0.0489063576353441	0.18286725028867795	0	0	2.45249343832021	7.401252118544355	ELK4;ELF3;ERF;ZNF787;ETV4;ETV5
RUNX1 CHEA	6/1294	0.051742700996403185	0.18541134523711142	0	0	2.415890269151139	7.154591146376609	KLF6;ELF4;ETV3;IRF9;ZNF740;ETV6
BRCA1 ENCODE	11/3218	0.06410682854100615	0.214253664610773	0	0	1.853415411851092	5.0917109582079005	ELK4;KLF6;ZNF571;NR4A3;SP1;NR1H2;ZNF787;ETV5;IRF9;GABPA;ZNF740
STAT3 ENCODE	4/725	0.06477436371953603	0.214253664610773	0	0	2.8085261697934154	7.686501859811636	KLF6;ZNF787;IRF9;ETV6
FOXA1 ENCODE	2/205	0.06891328255957843	0.21950156667124981	0	0	4.865763546798029	13.01546175680223	ETV5;ELK3
GATA2 CHEA	4/772	0.0777108507305562	0.230829681542798	0	0	2.6302083333333335	6.7195520472391	KLF6;SPI1;ETV3;FLI1
AR CHEA	5/1095	0.07783791586908305	0.230829681542798	0	0	2.339201586908009	5.972277831752637	KLF6;EHF;ELF2;FLI1;ETV6
NELFE ENCODE	2/234	0.08653375695329237	0.2480634365994381	0	0	4.251293103448276	10.403852430866987	ELK4;KLF6
CREB1 ENCODE	8/2238	0.09110048197521614	0.2527303693505996	0	0	1.8705354787654973	4.4814142801327055	ELK4;ZNF571;NR4A3;SP1;NR1H2;ERF;CTCF;ETV3
TCF3 ENCODE	4/840	0.0985721648562544	0.2594027638263448	0	0	2.4077058675396628	5.5785735020738985	KLF6;SP3;ERF;ETV5
PPARG CHEA	3/535	0.10169691121396754	0.2594027638263448	0	0	2.808849045691151	6.420350154271972	KLF6;SP3;ETV3
EGR1 ENCODE	3/537	0.10255458104762469	0.2594027638263448	0	0	2.798040910400461	6.3721467949599875	ERF;ELK1;ZNF740
BCL3 ENCODE	2/273	0.11208044312854218	0.27539766025870366	0	0	3.632287822878229	7.949401464782582	SP3;IRF9
SMAD4 CHEA	3/584	0.12353262328822144	0.28817171692931026	0	0	2.5654706739044086	5.365040550951667	KLF6;ETS2;ETV6
ZMIZ1 ENCODE	4/914	0.12398085495795907	0.28817171692931026	0	0	2.2033545401966457	4.599784898201677	ELK4;KLF6;ETV3;ELK1
GABPA ENCODE	7/2082	0.14143254495339055	0.32008418068398914	0	0	1.7236626506024095	3.371367607183653	ELK4;NR1H2;SP3;ZNF787;ETV3;GABPA;ZNF740
SP2 ENCODE	4/994	0.15431750785962825	0.3395076258915508	0	0	2.0167995746943115	3.768880207991758	SP1;SP3;ZNF787;ETV5
CHD1 ENCODE	3/655	0.15791052367048874	0.3395076258915508	0	0	2.27772534214252	4.204058507160977	REST;ETV3;ELK1
IRF3 ENCODE	3/663	0.1619622397664964	0.33972567365655343	0	0	2.249184149184149	4.094396963908864	KLF6;SP1;ETV5
CTCF ENCODE	6/1790	0.16945894286513058	0.34698735920002927	0	0	1.6978699551569507	3.0139646934137327	ELF3;SP1;CTCF;IRF9;ETS2;KLF1
SPI1 CHEA	4/1056	0.1796300028969917	0.35318144833652015	0	0	1.8917350410246148	3.2478368127470567	ELK4;ELF1;SP1;FLI1
RCOR1 ENCODE	3/702	0.18216387337284595	0.35318144833652015	0	0	2.119401342577308	3.6090195960700413	REST;ERF;ZNF740
SP1 ENCODE	3/707	0.18480424622259775	0.35318144833652015	0	0	2.1038024475524475	3.5521823730832973	KLF6;SP1;ETV5
CEBPB ENCODE	1/144	0.26199588921712913	0.4734619722931509	0	0	3.3796691113764283	4.526818251920698	ETV6
BCLAF1 ENCODE	3/851	0.2645543517653749	0.4734619722931509	0	0	1.7334905660377358	2.3050372444743563	KLF6;NR1H2;GABPA
RELA ENCODE	2/484	0.2703264692811809	0.4734619722931509	0	0	2.020331950207469	2.642846540283244	KLF6;ETV6
PBX3 ENCODE	4/1269	0.2755494871934743	0.4734619722931509	0	0	1.5554815893488663	2.0049971646186777	SP1;SP3;ZBTB7A;ETV5
SUZ12 CHEA	5/1684	0.27723843126202347	0.4734619722931509	0	0	1.4711942436778649	1.8873618173298206	TBX1;TBX15;NR4A3;FEV;FLI1
REST CHEA	4/1280	0.2807739603133802	0.4734619722931509	0	0	1.5411648242864213	1.957595797422824	KLF6;REST;ERG;ZNF787
HDAC2 ENCODE	1/175	0.30891817239847913	0.5083757515273288	0	0	2.7731987664704234	3.2576179416966013	CTCF
FOXP2 ENCODE	1/178	0.31330133524358633	0.5083757515273288	0	0	2.7257820035827476	3.163514842618536	ZNF740
NFYA ENCODE	6/2250	0.3326709553394788	0.5298092992443552	0	0	1.3156565656565657	1.4480134575806491	KLF6;SP1;SP3;ETV4;ELK1;ETV5
FOSL2 ENCODE	1/196	0.339036030498616	0.5301290658705633	0	0	2.4719199499687305	2.6737494764617673	ELF1
USF1 ENCODE	4/1423	0.3499248633042204	0.53738461150291	0	0	1.3752457253069248	1.4440586533713673	KLF6;ETV1;ELK1;IRF9
TRIM28 CHEA	1/210	0.3583986833802577	0.5407418731702134	0	0	2.304702999183102	2.364877115497894	ETV6
STAT5A ENCODE	1/233	0.3890130612355786	0.5614545914358229	0	0	2.073801513877208	1.957963854418269	NR1H2
ATF2 ENCODE	7/2852	0.391476923621454	0.5614545914358229	0	0	1.2030228471001758	1.1282293633338054	ELK4;KLF6;NR4A3;ELF3;NR1H2;IRF9;GABPA
EZH2 CHEA	1/237	0.3941897030658794	0.5614545914358229	0	0	2.038238941711451	1.8974435219442534	FEV
FLI1 ENCODE	2/650	0.39824104741378136	0.5614545914358229	0	0	1.4899691358024691	1.371811320687409	NR1H2;GABPA
SIX5 ENCODE	3/1094	0.4055275423800341	0.5625059458819828	0	0	1.330254530071212	1.200643156307494	ZNF571;ZBTB7A;GABPA
IRF1 ENCODE	1/263	0.4268093514805937	0.5826286385290644	0	0	1.8335505492459505	1.5611176648716532	ELK4
PML ENCODE	4/1596	0.4342606851158676	0.5835377956244471	0	0	1.2143612800846337	1.012911213089769	ELK4;KLF6;SP3;CTCF
NFIC ENCODE	1/279	0.4460239409022288	0.5839482302081371	0	0	1.7266187050359711	1.3940419843161458	IRF9
UBTF ENCODE	4/1631	0.4511064260199747	0.5839482302081371	0	0	1.1859735386407013	0.9440965948658552	REST;CTCF;ZBTB7A;ETS2
SMC3 ENCODE	3/1181	0.45493641190633943	0.5839482302081371	0	0	1.2263288494188325	0.9658536878606033	ELF3;IRF9;ETS2
SRF ENCODE	1/299	0.4691596194466003	0.5933489304765827	0	0	1.609101325912588	1.2177875602930124	NR4A3
YY1 CHEA	1/332	0.5052872177306772	0.6285093408745236	0	0	1.4462456709159237	0.987248170788656	SP1
NR2C2 ENCODE	1/350	0.523969646473435	0.6285093408745236	0	0	1.3703962541058075	0.8857165939524829	GABPA
SALL4 CHEA	1/355	0.5290357936898356	0.6285093408745236	0	0	1.3506958798401543	0.8599869678803345	SP3
NFYB ENCODE	8/3715	0.5309656973064757	0.6285093408745236	0	0	1.0314984369793236	0.6529981931105784	KLF6;NR4A3;SP1;SP3;ZBTB7A;ETV4;ELK1;ETV5
E2F6 ENCODE	7/3245	0.5335021149283746	0.6285093408745236	0	0	1.0327362569487337	0.6488601803346727	ELF4;SP3;ETV1;CTCF;KLF4;ETS2;ZNF740
REST ENCODE	1/383	0.556448309900598	0.6466831709655598	0	0	1.249904226790959	0.7326701056351071	REST
USF2 ENCODE	2/965	0.6081779377817229	0.6903268329502402	0	0	0.9862409138110073	0.4904455535954953	ELK1;IRF9
ELF1 ENCODE	5/2483	0.6100562709792821	0.6903268329502402	0	0	0.953253495626377	0.47110176544232507	NR1H2;SP3;ZNF787;GABPA;ETV6
MYC CHEA	1/573	0.7054015820302642	0.787851117592243	0	0	0.8266245949172778	0.2884820793744602	CTCF
TAF7 ENCODE	1/640	0.7452303060866202	0.821664183633966	0	0	0.737394557044162	0.2168396980941174	KLF6
NRF1 ENCODE	3/1882	0.7694682364397963	0.829443934320024	0	0	0.7401236336840381	0.19395354640452975	ZNF571;ZNF787;ZNF740
ZBTB33 ENCODE	1/702	0.7773729934923365	0.829443934320024	0	0	0.6700184405553042	0.16873409444199663	ETV5
E2F4 ENCODE	1/710	0.7812204497665342	0.829443934320024	0	0	0.6621830816333552	0.1634916142214092	CTCF
E2F1 CHEA	1/859	0.8420871633771037	0.87430804766439	0	0	0.5429529819773722	0.09331827953164296	SP3
YY1 ENCODE	4/2753	0.8484267623051415	0.87430804766439	0	0	0.6589573241944439	0.10831381194962941	SP1;CTCF;GABPA;ZNF740
TAF1 ENCODE	5/3346	0.8539753023698693	0.87430804766439	0	0	0.672116294684388	0.10609557719731967	ELK4;KLF6;SP3;ETV5;ZNF740
MYC ENCODE	1/1515	0.9635544801160685	0.9748904151762575	0	0	0.2971292328511132	0.011031293811288718	ZNF787
MAX ENCODE	1/2073	0.9899540840380965	0.9899540840380965	0	0	0.2105424239570581	0.002125787205620103	ETS2
