Term	Overlap	P-value	Adjusted P-value	Old P-value	Old Adjusted P-value	Odds Ratio	Combined Score	Genes
TNF-alpha Signaling via NF-kB	7/200	7.18742701362108E-8	1.2218625923155837E-6	0	0	23.901554404145077	393.14107245044136	EGR1;EGR2;KLF6;SMAD3;EGR3;KLF9;BHLHE40
Hypoxia	3/200	0.005960437831234491	0.025331860782746587	0	0	8.853090474768587	45.35094165112317	KLF7;KLF6;BHLHE40
G2-M Checkpoint	3/200	0.005960437831234491	0.025331860782746587	0	0	8.853090474768587	45.35094165112317	SMAD3;E2F1;E2F4
heme Metabolism	3/200	0.005960437831234491	0.025331860782746587	0	0	8.853090474768587	45.35094165112317	VEZF1;KLF3;KLF1
UV Response Dn	2/144	0.029086989356807046	0.09889576381314395	0	0	7.97625754527163	28.21572636126222	SMAD3;BHLHE40
IL-2/STAT5 Signaling	2/199	0.05225978031225336	0.12805238135300315	0	0	5.733430021754895	16.922380521764758	KLF6;BHLHE40
Estrogen Response Early	2/200	0.05272745114535424	0.12805238135300315	0	0	5.704184704184704	16.785242657704043	EGR3;BHLHE40
TGF-beta Signaling	1/54	0.09527570001266539	0.20246086252691395	0	0	10.435010482180294	24.532506003993255	SMAD3
PI3K/AKT/mTOR  Signaling	1/105	0.1771136386190957	0.31078254425093965	0	0	5.304220085470085	9.181412564378913	E2F1
Bile Acid Metabolism	1/112	0.18776825697049568	0.31078254425093965	0	0	4.967967967967968	8.309158689911323	KLF1
Coagulation	1/138	0.22617994929573873	0.31078254425093965	0	0	4.019870235198702	5.975233044514787	KLF7
Apoptosis	1/161	0.2586817404514753	0.31078254425093965	0	0	3.4380208333333333	4.648743159713795	EGR3
p53 Pathway	1/200	0.31078254425093965	0.31078254425093965	0	0	2.758793969849246	3.2240971983470845	SP1
Estrogen Response Late	1/200	0.31078254425093965	0.31078254425093965	0	0	2.758793969849246	3.2240971983470845	EGR3
Myogenesis	1/200	0.31078254425093965	0.31078254425093965	0	0	2.758793969849246	3.2240971983470845	BHLHE40
mTORC1 Signaling	1/200	0.31078254425093965	0.31078254425093965	0	0	2.758793969849246	3.2240971983470845	BHLHE40
Inflammatory Response	1/200	0.31078254425093965	0.31078254425093965	0	0	2.758793969849246	3.2240971983470845	KLF6
