Term	Overlap	P-value	Adjusted P-value	Old P-value	Old Adjusted P-value	Odds Ratio	Combined Score	Genes
STAT1 mouse	3/34	5.0165522904334224E-6	4.1135728781554066E-4	0	0	113.56166982922201	1385.7666714337506	EGR1;POU3F1;IRF9
GATA1 human	3/57	2.417270973182761E-5	9.91081099004932E-4	0	0	65.11764705882354	692.2192286932735	WT1;TAL1;KLF1
GATA1 mouse	2/17	1.280437171265482E-4	0.0034998616014589837	0	0	147.88888888888889	1325.5486399086653	TAL1;ZBTB7A
RELA human	4/301	2.014159510530732E-4	0.0041290269965880005	0	0	16.568181818181817	140.9975199770096	EGR1;WT1;PPARA;FOXO3
PITX2 mouse	2/24	2.5876610708752327E-4	0.004243764156235381	0	0	100.79797979797979	832.5495793111635	TBX1;TBX15
CTCF human	2/30	4.0637445946356223E-4	0.00555378427933535	0	0	79.17460317460318	618.2139479571657	WT1;SIX5
MYB human	2/37	6.195695304718364E-4	0.007257814499812941	0	0	63.317460317460316	467.69351055771176	WT1;KLF1
BRCA1 human	2/57	0.0014670547641947606	0.015037311332996297	0	0	40.25252525252525	262.62753860977597	EGR1;IRF9
ETS1 human	2/79	0.0027950276574232437	0.024215379043288715	0	0	28.72005772005772	168.87144870732206	EGR1;WT1
NFKB1 human	3/303	0.003242174725826058	0.024215379043288715	0	0	11.576470588235294	66.3506680854395	EGR1;WT1;FOXO3
ZFP148 mouse	1/6	0.0059856908667451705	0.024215379043288715	0	0	210.26315789473685	1076.2074808846232	TAL1
PAX2 human	1/6	0.0059856908667451705	0.024215379043288715	0	0	210.26315789473685	1076.2074808846232	WT1
PITX1 mouse	1/6	0.0059856908667451705	0.024215379043288715	0	0	210.26315789473685	1076.2074808846232	TBX1
PLAG1 mouse	1/6	0.0059856908667451705	0.024215379043288715	0	0	210.26315789473685	1076.2074808846232	EGR1
RELA mouse	2/121	0.006422814330741102	0.024215379043288715	0	0	18.54435107376284	93.61000916507308	WT1;PPARA
NFATC1 human	1/7	0.006979995894180786	0.024215379043288715	0	0	175.21052631578948	869.8689177892479	EGR3
NFATC2 human	1/7	0.006979995894180786	0.024215379043288715	0	0	175.21052631578948	869.8689177892479	EGR3
NR2F2 human	1/7	0.006979995894180786	0.024215379043288715	0	0	175.21052631578948	869.8689177892479	PPARA
ELK1 mouse	1/7	0.006979995894180786	0.024215379043288715	0	0	175.21052631578948	869.8689177892479	EGR1
FOXC2 mouse	1/7	0.006979995894180786	0.024215379043288715	0	0	175.21052631578948	869.8689177892479	TBX1
ATF5 human	1/8	0.0079733565142536	0.024215379043288715	0	0	150.17293233082708	725.5830081396662	EGR1
RBMX human	1/8	0.0079733565142536	0.024215379043288715	0	0	150.17293233082708	725.5830081396662	EGR1
HDAC5 human	1/8	0.0079733565142536	0.024215379043288715	0	0	150.17293233082708	725.5830081396662	WT1
DMTF1 mouse	1/8	0.0079733565142536	0.024215379043288715	0	0	150.17293233082708	725.5830081396662	EGR1
ESRRA mouse	1/8	0.0079733565142536	0.024215379043288715	0	0	150.17293233082708	725.5830081396662	PPARA
PAX8 human	1/8	0.0079733565142536	0.024215379043288715	0	0	150.17293233082708	725.5830081396662	WT1
FOXC1 mouse	1/8	0.0079733565142536	0.024215379043288715	0	0	150.17293233082708	725.5830081396662	TBX1
TFCP2 human	1/9	0.008965773496317424	0.02450644755660096	0	0	131.39473684210526	619.439581424405	WT1
BCL11B mouse	1/9	0.008965773496317424	0.02450644755660096	0	0	131.39473684210526	619.439581424405	ZBTB7B
PER1 mouse	1/9	0.008965773496317424	0.02450644755660096	0	0	131.39473684210526	619.439581424405	EGR1
ABL1 human	1/10	0.009957247624386196	0.025099086777113238	0	0	116.78947368421052	538.3357753631753	FOXO3
PPARD mouse	1/11	0.010947779702855981	0.025099086777113238	0	0	105.10526315789474	474.5101770765117	FOXO1
RORA mouse	1/11	0.010947779702855981	0.025099086777113238	0	0	105.10526315789474	474.5101770765117	PPARA
KLF5 mouse	1/11	0.010947779702855981	0.025099086777113238	0	0	105.10526315789474	474.5101770765117	EGR1
TP53 human	2/164	0.0115250583407572	0.025099086777113238	0	0	13.592592592592593	60.6668891658796	EGR1;FOXO3
TRP53 mouse	2/167	0.011930516578011726	0.025099086777113238	0	0	13.343434343434344	59.09347713711956	EGR1;FOXO3
NR1I2 mouse	1/12	0.011937370540334344	0.025099086777113238	0	0	95.54545454545455	423.0830518492731	PPARA
NR1I3 mouse	1/12	0.011937370540334344	0.025099086777113238	0	0	95.54545454545455	423.0830518492731	PPARA
ELF1 mouse	1/12	0.011937370540334344	0.025099086777113238	0	0	95.54545454545455	423.0830518492731	TAL1
XBP1 mouse	1/13	0.01292602095289387	0.02585204190578774	0	0	87.57894736842105	380.83817987374294	FOXO1
KLF5 human	1/13	0.01292602095289387	0.02585204190578774	0	0	87.57894736842105	380.83817987374294	FOXO1
PAX2 mouse	1/14	0.013913731760820029	0.027164904866362912	0	0	80.83805668016194	345.57291333057793	WT1
TP63 human	1/15	0.014900503788898576	0.027769120697492797	0	0	75.06015037593986	315.7300332957057	PPARA
HOXA10 human	1/15	0.014900503788898576	0.027769120697492797	0	0	75.06015037593986	315.7300332957057	WT1
STAT6 mouse	1/16	0.015886337864689626	0.02894843788676776	0	0	70.05263157894737	290.1787210723924	EGR1
NFKB1 mouse	2/200	0.016794888254868964	0.029938713845635977	0	0	11.1010101010101	45.36628383483138	WT1;PPARA
GATA2 human	1/19	0.018838220672014273	0.030894681902103406	0	0	58.36842105263158	231.83163218032678	WT1
TRP73 mouse	1/19	0.018838220672014273	0.030894681902103406	0	0	58.36842105263158	231.83163218032678	FOXO3
NR2F2 mouse	1/19	0.018838220672014273	0.030894681902103406	0	0	58.36842105263158	231.83163218032678	PPARA
SRF mouse	1/19	0.018838220672014273	0.030894681902103406	0	0	58.36842105263158	231.83163218032678	EGR1
PPARGC1A mouse	1/20	0.019820311238232097	0.031867951402647685	0	0	55.29362880886426	216.80897525048422	PPARA
NFATC2 mouse	1/21	0.020801468010995312	0.03280231494041568	0	0	52.526315789473685	203.4203291515269	EGR3
FOXO1 human	1/24	0.023739343866497245	0.03604863327875508	0	0	45.66819221967963	170.827422984315	EGR1
HDAC4 human	1/24	0.023739343866497245	0.03604863327875508	0	0	45.66819221967963	170.827422984315	WT1
CREBBP human	1/25	0.02471677377849272	0.036192418747078625	0	0	43.76315789473684	161.93563879493826	PPARA
PARP1 human	1/25	0.02471677377849272	0.036192418747078625	0	0	43.76315789473684	161.93563879493826	FOXO1
ETS2 mouse	1/26	0.025693274055310834	0.036962253904131374	0	0	42.01052631578948	153.82263569148483	EGR1
REL mouse	1/28	0.02764348904824574	0.03908217417165777	0	0	38.89473684210526	139.56851455439977	WT1
ESR1 mouse	1/29	0.028617205427454835	0.03977306517036096	0	0	37.50375939849624	133.2788782141628	POU3F1
SP1 mouse	2/270	0.029398988407406984	0.04017861749012288	0	0	8.172470978441128	28.822629891804034	EGR1;TAL1
ETS2 human	1/32	0.03153280007583892	0.04238835420030805	0	0	33.869269949066215	117.07681999296598	EGR1
HNF4A mouse	1/36	0.0354073301248565	0.0468290495199715	0	0	29.992481203007518	100.19997336732251	PPARA
SPI1 mouse	1/40	0.039267132268101	0.05031101321850441	0	0	26.910931174089068	87.12057233834933	TAL1
FOXA2 mouse	1/40	0.039267132268101	0.05031101321850441	0	0	26.910931174089068	87.12057233834933	TBX1
TCF3 mouse	1/44	0.04311225942960537	0.05438777343427139	0	0	24.402692778457773	76.72079424655034	FOXO1
HNF4A human	1/45	0.044071254437806	0.054755194907577145	0	0	23.84688995215311	74.44873932423765	PPARA
SIRT1 human	1/48	0.046942764384003306	0.056922394053511086	0	0	22.32138857782755	68.27724816722397	FOXO3
FOXO1 mouse	1/49	0.04789811206941787	0.056922394053511086	0	0	21.855263157894736	66.41113333547993	EGR1
E2F1 mouse	1/49	0.04789811206941787	0.056922394053511086	0	0	21.855263157894736	66.41113333547993	EGR1
PPARG mouse	1/50	0.04885254998202776	0.057227272836089665	0	0	21.408163265306122	64.63014669364038	EGR1
EP300 human	1/56	0.05456011794991924	0.06213791210963024	0	0	19.066985645933013	55.45541451142644	WT1
FOS mouse	1/56	0.05456011794991924	0.06213791210963024	0	0	19.066985645933013	55.45541451142644	EGR1
ETS1 mouse	1/59	0.05740168618341881	0.06447860639781292	0	0	18.078039927404717	51.661282065881295	EGR1
HDAC1 human	1/71	0.06868703331046773	0.076112658533221	0	0	14.969924812030076	40.09237540517205	EGR1
STAT3 mouse	1/79	0.0761391600452789	0.08324548164950493	0	0	13.429149797570851	34.58264664318254	EGR1
HIF1A human	1/83	0.07984394641037199	0.08383507209638061	0	0	12.771501925545572	32.28228555834262	PPARA
SP3 mouse	1/83	0.07984394641037199	0.08383507209638061	0	0	12.771501925545572	32.28228555834262	TAL1
SP1 human	2/472	0.07985905710537497	0.08383507209638061	0	0	4.612293144208038	11.657533951050336	EGR1;WT1
STAT1 human	1/84	0.08076793531236669	0.08383507209638061	0	0	12.61699429296132	31.746568547413606	PPARA
CREB1 human	1/90	0.0862933855050247	0.08845072014265032	0	0	11.762862211709049	28.81903981668561	NR4A3
STAT3 human	1/142	0.1328766671456546	0.13451711982646516	0	0	7.405375139977604	14.946519655220376	PPARA
JUN human	1/149	0.13897240381900625	0.13897240381900625	0	0	7.052631578947368	13.918226657784341	PPARA
