Target_ID
MA0079.3
UP00088_1
MA0516.1
MA1102.1
MA0741.1
UP00002_1
UP00021_1
MA0599.1
MA0747.1
MA0746.1
MA0740.1
MA0685.1
MA0073.1
UP00022_1
MA0528.1
MA0753.1
UP00092_2
UP00036_2
UP00095_1
MA0103.3
MA0146.2
MA0526.2
MA0504.1
MA1122.1
MA0470.1
MA0471.1
MA0801.1
MA0823.1
MA0649.1
MA0147.3
MA0593.1
MA0846.1
MA0139.1
MA1100.1