Term	Overlap	P-value	Adjusted P-value	Old P-value	Old Adjusted P-value	Odds Ratio	Combined Score	Genes
SP1 mouse	6/270	2.295382220205612E-5	0.00266264337543851	0	0	12.096437346437346	129.21445933762362	EGR1;SP1;TAL1;SP4;ASCL2;KLF16
MYB human	3/37	6.834890708147538E-5	0.003964236610725572	0	0	43.94779411764706	421.4982387246933	WT1;SP3;KLF1
BRCA1 human	3/57	2.4979502142209975E-4	0.007244055621240893	0	0	27.643055555555556	229.2955492154774	EGR1;EP300;IRF9
GATA1 human	3/57	2.4979502142209975E-4	0.007244055621240893	0	0	27.643055555555556	229.2955492154774	WT1;TAL1;KLF1
HOXA10 human	2/15	4.6573681352710507E-4	0.009238005133127196	0	0	74.83677298311444	574.139479895918	WT1;KLF9
HDAC1 human	3/71	4.7782785171347563E-4	0.009238005133127196	0	0	21.93639705882353	167.73139610325921	EGR1;SP1;KLF4
SRF mouse	2/19	7.543579072186544E-4	0.012500788176766274	0	0	57.21664275466284	411.3672708004445	EGR1;KLF3
PITX2 mouse	2/24	0.0012092868136118387	0.015586363375441477	0	0	44.20177383592018	296.9353391905164	TBX1;TBX15
HDAC4 human	2/24	0.0012092868136118387	0.015586363375441477	0	0	44.20177383592018	296.9353391905164	WT1;KLF4
HDAC2 human	2/27	0.0015316216181504704	0.017766810770545455	0	0	38.89170731707317	252.0738094731918	SP1;KLF4
CDX2 human	2/32	0.0021496497140763666	0.022669033348441683	0	0	32.40162601626016	199.02537983535302	SP1;KLF4
STAT1 mouse	2/34	0.0024247449101167736	0.023439200797795476	0	0	30.3734756097561	182.90994948965815	EGR1;IRF9
FOXA2 mouse	2/40	0.003343883466309401	0.029837729391683887	0	0	25.569961489088573	145.76469607458566	TBX1;SOX17
PAX6 mouse	2/43	0.0038554225788541055	0.031944929939076876	0	0	23.695419393218323	131.70564916179435	PLAGL1;SP8
PPARG mouse	2/50	0.005180691162792406	0.03769230786426325	0	0	20.232723577235774	106.48111760263689	EGR1;KLF5
TP53 human	3/164	0.0052531188078190055	0.03769230786426325	0	0	9.221739130434782	48.40429379128017	EGR1;SMAD3;PLAGL1
TRP53 mouse	3/167	0.005523872704245477	0.03769230786426325	0	0	9.051676829268292	47.05673588705536	EGR1;SMAD3;KLF4
EP300 mouse	2/60	0.0073846152576013385	0.041262049580248546	0	0	16.735912531539107	82.14582442458652	SMAD3;KLF5
NFKB1 mouse	3/200	0.009061882822613368	0.041262049580248546	0	0	7.522842639593908	35.3850321555175	EGR2;KLF5;WT1
ETS1 human	2/79	0.012527494202008126	0.041262049580248546	0	0	12.594235033259423	55.16060230431339	EGR1;WT1
STAT3 mouse	2/79	0.012527494202008126	0.041262049580248546	0	0	12.594235033259423	55.16060230431339	EGR1;KLF4
MEIS2 mouse	1/6	0.012832337737452553	0.041262049580248546	0	0	95.00952380952381	413.84123997008294	EGR2
MTF1 mouse	1/6	0.012832337737452553	0.041262049580248546	0	0	95.00952380952381	413.84123997008294	EP300
WWTR1 human	1/6	0.012832337737452553	0.041262049580248546	0	0	95.00952380952381	413.84123997008294	SMAD3
ZFP148 mouse	1/6	0.012832337737452553	0.041262049580248546	0	0	95.00952380952381	413.84123997008294	TAL1
NKX2-1 human	1/6	0.012832337737452553	0.041262049580248546	0	0	95.00952380952381	413.84123997008294	SP1
NUPR1 mouse	1/6	0.012832337737452553	0.041262049580248546	0	0	95.00952380952381	413.84123997008294	EP300
PAX2 human	1/6	0.012832337737452553	0.041262049580248546	0	0	95.00952380952381	413.84123997008294	WT1
PITX1 mouse	1/6	0.012832337737452553	0.041262049580248546	0	0	95.00952380952381	413.84123997008294	TBX1
PLAG1 mouse	1/6	0.012832337737452553	0.041262049580248546	0	0	95.00952380952381	413.84123997008294	EGR1
POU3F1 mouse	1/6	0.012832337737452553	0.041262049580248546	0	0	95.00952380952381	413.84123997008294	EGR2
SPDEF mouse	1/6	0.012832337737452553	0.041262049580248546	0	0	95.00952380952381	413.84123997008294	SOX17
SP3 mouse	2/83	0.013762080364943018	0.041262049580248546	0	0	11.969888587774767	51.301006580269814	SP1;TAL1
NFATC1 human	1/7	0.014955374188168613	0.041262049580248546	0	0	79.17063492063492	332.7292054829482	SP1
DACH1 mouse	1/7	0.014955374188168613	0.041262049580248546	0	0	79.17063492063492	332.7292054829482	KLF4
ELK1 mouse	1/7	0.014955374188168613	0.041262049580248546	0	0	79.17063492063492	332.7292054829482	EGR1
FOXC2 mouse	1/7	0.014955374188168613	0.041262049580248546	0	0	79.17063492063492	332.7292054829482	TBX1
HNF1B mouse	1/7	0.014955374188168613	0.041262049580248546	0	0	79.17063492063492	332.7292054829482	EGR2
SIN3A mouse	1/7	0.014955374188168613	0.041262049580248546	0	0	79.17063492063492	332.7292054829482	SP3
AR human	2/93	0.017068397821674058	0.041262049580248546	0	0	10.649155722326453	43.34767169794486	KLF5;EP300
ATF5 human	1/8	0.017073951550447674	0.041262049580248546	0	0	67.85714285714286	276.1922295799092	EGR1
MYBL2 human	1/8	0.017073951550447674	0.041262049580248546	0	0	67.85714285714286	276.1922295799092	SP1
DMTF1 mouse	1/8	0.017073951550447674	0.041262049580248546	0	0	67.85714285714286	276.1922295799092	EGR1
PAX8 human	1/8	0.017073951550447674	0.041262049580248546	0	0	67.85714285714286	276.1922295799092	WT1
FOXC1 mouse	1/8	0.017073951550447674	0.041262049580248546	0	0	67.85714285714286	276.1922295799092	TBX1
RBMX human	1/8	0.017073951550447674	0.041262049580248546	0	0	67.85714285714286	276.1922295799092	EGR1
HDAC5 human	1/8	0.017073951550447674	0.041262049580248546	0	0	67.85714285714286	276.1922295799092	WT1
SMAD7 mouse	1/8	0.017073951550447674	0.041262049580248546	0	0	67.85714285714286	276.1922295799092	SMAD3
TFCP2 human	1/9	0.01918807882344009	0.04280417583690482	0	0	59.37202380952381	234.72528267100722	WT1
NCOA3 mouse	1/9	0.01918807882344009	0.04280417583690482	0	0	59.37202380952381	234.72528267100722	KLF4
EWSR1 human	1/9	0.01918807882344009	0.04280417583690482	0	0	59.37202380952381	234.72528267100722	EGR2
PER1 mouse	1/9	0.01918807882344009	0.04280417583690482	0	0	59.37202380952381	234.72528267100722	EGR1
MYF5 mouse	1/10	0.0212977650246516	0.04524583707266668	0	0	52.77248677248677	203.12938317607103	MYF6
TFAP2C mouse	1/11	0.02340301917551725	0.04524583707266668	0	0	47.49285714285714	178.33046577189359	KLF4
CITED2 mouse	1/11	0.02340301917551725	0.04524583707266668	0	0	47.49285714285714	178.33046577189359	SMAD3
NFIC mouse	1/11	0.02340301917551725	0.04524583707266668	0	0	47.49285714285714	178.33046577189359	KLF4
NKX2-1 mouse	1/11	0.02340301917551725	0.04524583707266668	0	0	47.49285714285714	178.33046577189359	SOX17
PPARD mouse	1/11	0.02340301917551725	0.04524583707266668	0	0	47.49285714285714	178.33046577189359	SP1
RARA mouse	1/11	0.02340301917551725	0.04524583707266668	0	0	47.49285714285714	178.33046577189359	KLF5
KLF5 mouse	1/11	0.02340301917551725	0.04524583707266668	0	0	47.49285714285714	178.33046577189359	EGR1
APC human	1/12	0.025503850306368207	0.046959470405376375	0	0	43.17316017316017	158.39912320457492	KLF4
ELF1 mouse	1/12	0.025503850306368207	0.046959470405376375	0	0	43.17316017316017	158.39912320457492	TAL1
SOX10 mouse	1/12	0.025503850306368207	0.046959470405376375	0	0	43.17316017316017	158.39912320457492	EGR2
STAT5A human	1/13	0.027600267431624026	0.04920434899096933	0	0	39.573412698412696	142.06577419675818	SP1
RELA mouse	2/121	0.027893074218001523	0.04920434899096933	0	0	8.131994261119083	29.1074720585662	KLF5;WT1
MYOG mouse	1/14	0.029692279563515972	0.04920434899096933	0	0	36.527472527472526	128.46230708138887	MYF6
NF1 human	1/14	0.029692279563515972	0.04920434899096933	0	0	36.527472527472526	128.46230708138887	SP3
PAX2 mouse	1/14	0.029692279563515972	0.04920434899096933	0	0	36.527472527472526	128.46230708138887	WT1
PGR mouse	1/14	0.029692279563515972	0.04920434899096933	0	0	36.527472527472526	128.46230708138887	KLF5
SIX1 mouse	1/14	0.029692279563515972	0.04920434899096933	0	0	36.527472527472526	128.46230708138887	SALL1
TP63 human	1/15	0.031779895695937886	0.051922083108856265	0	0	33.916666666666664	116.97591748147126	KLF4
MECP2 mouse	1/16	0.03386312482285649	0.05380989697878566	0	0	31.653968253968255	107.16225006283427	PLAGL1
STAT6 mouse	1/16	0.03386312482285649	0.05380989697878566	0	0	31.653968253968255	107.16225006283427	EGR1
GATA1 mouse	1/17	0.03594197592289709	0.05559025609408084	0	0	29.674107142857142	98.6916120526478	TAL1
HMGA1 human	1/17	0.03594197592289709	0.05559025609408084	0	0	29.674107142857142	98.6916120526478	SP1
NR0B2 mouse	1/19	0.040086579837034224	0.05886130710248064	0	0	26.374338624338623	84.83869553971446	SMAD3
PML human	1/19	0.040086579837034224	0.05886130710248064	0	0	26.374338624338623	84.83869553971446	EP300
GATA2 human	1/19	0.040086579837034224	0.05886130710248064	0	0	26.374338624338623	84.83869553971446	WT1
GLI1 human	1/19	0.040086579837034224	0.05886130710248064	0	0	26.374338624338623	84.83869553971446	EGR2
NFYA human	1/20	0.042152350529806835	0.06036632915379744	0	0	24.984962406015036	79.11400474395023	SP3
RB1 mouse	1/20	0.042152350529806835	0.06036632915379744	0	0	24.984962406015036	79.11400474395023	SP1
ATM human	1/22	0.04627087395770182	0.06545635828162696	0	0	22.603174603174605	69.46503881508069	SP1
SOX9 human	1/23	0.048323644474131566	0.06753665974697906	0	0	21.574675324675326	65.36769140672365	KLF4
FLI1 human	1/24	0.050372099341792924	0.06874310027821152	0	0	20.63561076604555	61.66576382608654	EP300
FOXO1 human	1/24	0.050372099341792924	0.06874310027821152	0	0	20.63561076604555	61.66576382608654	EGR1
TCF4 human	1/25	0.05241624742545046	0.06988832990060061	0	0	19.77480158730159	58.30676717854421	KLF4
CREBBP human	1/25	0.05241624742545046	0.06988832990060061	0	0	19.77480158730159	58.30676717854421	EP300
NR1I2 human	1/26	0.05445609753674947	0.07018785904736599	0	0	18.982857142857142	55.24695668935345	KLF6
ETS2 mouse	1/26	0.05445609753674947	0.07018785904736599	0	0	18.982857142857142	55.24695668935345	EGR1
SIRT1 mouse	1/26	0.05445609753674947	0.07018785904736599	0	0	18.982857142857142	55.24695668935345	SMAD3
REL mouse	1/28	0.05852293911887696	0.07378979280206226	0	0	17.57495590828924	49.88363848737288	WT1
HDAC1 mouse	1/28	0.05852293911887696	0.07378979280206226	0	0	17.57495590828924	49.88363848737288	SP1
CTCF human	1/30	0.06257269440665451	0.07804766184055832	0	0	16.361247947454842	45.34399265988268	WT1
RB1 human	1/31	0.06459118658971515	0.07970827281283997	0	0	15.815079365079365	43.328214060740166	SP1
ETS2 human	1/32	0.06660543343574382	0.0813287397741714	0	0	15.304147465437788	41.45846291696091	EGR1
SP1 human	3/472	0.0806248554806534	0.09742170037245619	0	0	3.1164179104477614	7.846979168344726	EGR1;WT1;SP3
RUNX1 human	1/40	0.08256761817264792	0.09773309906150161	0	0	12.15995115995116	30.328592704867834	KLF4
SPI1 mouse	1/40	0.08256761817264792	0.09773309906150161	0	0	12.15995115995116	30.328592704867834	TAL1
CREBBP mouse	1/41	0.08454404703131782	0.09906171167305926	0	0	11.855357142857143	29.288453701681362	EP300
USF2 human	1/47	0.09631558007335804	0.11172607288509531	0	0	10.305900621118013	24.11709761219115	ASCL2
MYC mouse	1/49	0.10020647014004594	0.11285388870141096	0	0	9.875496031746032	22.71880101878368	ZBTB17
E2F1 mouse	1/49	0.10020647014004594	0.11285388870141096	0	0	9.875496031746032	22.71880101878368	EGR1
FOXO1 mouse	1/49	0.10020647014004594	0.11285388870141096	0	0	9.875496031746032	22.71880101878368	EGR1
MYOD1 mouse	1/50	0.10214577427941592	0.11393182515781006	0	0	9.673469387755102	22.068611238785657	MYF6
EP300 human	1/56	0.11369615520357845	0.12442220758127454	0	0	8.615584415584415	18.73222500578713	WT1
FOS mouse	1/56	0.11369615520357845	0.12442220758127454	0	0	8.615584415584415	18.73222500578713	EGR1
WT1 human	1/57	0.11560705596625415	0.12533101394472412	0	0	8.461309523809524	18.255768480581505	SMAD3
ETS1 mouse	1/59	0.11941679272868831	0.12826248107896154	0	0	8.16871921182266	17.35963473969882	EGR1
USF1 human	1/65	0.1307500786928151	0.13914687273730783	0	0	7.400669642857143	15.056422415612554	ASCL2
PPARG human	1/66	0.13262505685963988	0.13985915087016568	0	0	7.286446886446886	14.720293152785615	KLF4
RELA human	2/301	0.1366030824497454	0.14275637445198616	0	0	3.2071131413655274	6.384322411203486	EGR1;WT1
NFKB1 human	2/303	0.1380656967931172	0.14299661453572854	0	0	3.1854792966534315	6.307330693858779	EGR1;WT1
TFAP2A human	1/71	0.14194085282288474	0.14570919404827107	0	0	6.764285714285714	13.206218294131878	KLF12
ESR1 human	1/76	0.15115889773631005	0.153810808222912	0	0	6.311746031746032	11.925562493804499	SP1
EGR1 human	1/88	0.17288935311384995	0.17439273879310083	0	0	5.437876299945265	9.544035544311454	EP300
MYC human	1/100	0.19407611900781976	0.19407611900781976	0	0	4.775853775853776	7.830035336967146	EP300
