Term	Overlap	P-value	Adjusted P-value	Old P-value	Old Adjusted P-value	Odds Ratio	Combined Score	Genes
TNF-alpha Signaling via NF-kB	3/200	9.905301969888136E-4	0.006933711378921695	0	0	17.721409375933113	122.58377707877821	EGR1;EGR3;NR4A3
heme Metabolism	3/200	9.905301969888136E-4	0.006933711378921695	0	0	17.721409375933113	122.58377707877821	TAL1;FOXO3;KLF1
Pancreas Beta Cells	1/40	0.039267132268101	0.182171186958547	0	0	26.910931174089068	87.12057233834933	FOXO1
IL-6/JAK/STAT3 Signaling	1/87	0.0835346163259223	0.182171186958547	0	0	12.175030599755202	30.224442437891277	IRF9
Interferon Alpha Response	1/97	0.09269986559485559	0.182171186958547	0	0	10.901315789473685	25.927561451957157	IRF9
Bile Acid Metabolism	1/112	0.10628463801543638	0.182171186958547	0	0	9.421052631578947	21.11855678854484	KLF1
Fatty Acid Metabolism	1/158	0.1467499768501904	0.182171186958547	0	0	6.645323499832384	12.752541783227706	PPARA
Apoptosis	1/161	0.14932763619504633	0.182171186958547	0	0	6.519736842105263	12.398012987267279	EGR3
Hypoxia	1/200	0.182171186958547	0.182171186958547	0	0	5.231684739486909	8.908556962758436	FOXO3
p53 Pathway	1/200	0.182171186958547	0.182171186958547	0	0	5.231684739486909	8.908556962758436	FOXO3
Estrogen Response Early	1/200	0.182171186958547	0.182171186958547	0	0	5.231684739486909	8.908556962758436	EGR3
Estrogen Response Late	1/200	0.182171186958547	0.182171186958547	0	0	5.231684739486909	8.908556962758436	EGR3
Myogenesis	1/200	0.182171186958547	0.182171186958547	0	0	5.231684739486909	8.908556962758436	FOXO4
Interferon Gamma Response	1/200	0.182171186958547	0.182171186958547	0	0	5.231684739486909	8.908556962758436	IRF9
