Term	Overlap	P-value	Adjusted P-value	Old P-value	Old Adjusted P-value	Odds Ratio	Combined Score	Genes
SMAD4 CHEA	7/584	6.976441202159453E-5	0.005650917373749157	0	0	8.110261160580889	77.61833420364584	KLF7;KLF6;WT1;FOXI2;BHLHE40;ZNF148;KLF3
EGR1 CHEA	5/315	2.370884886795887E-4	0.009602083791523343	0	0	10.225806451612904	85.35559503061218	EGR1;EGR2;SMAD3;SP1;KLF9
SPI1 CHEA	8/1056	4.7385432084157516E-4	0.01279406666272253	0	0	5.1570338058887675	39.47508575632796	ZBTB17;KLF7;SP1;KLF9;BHLHE40;E2F4;PATZ1;KLF16
TCF3 ENCODE	7/840	6.458022464939606E-4	0.013077495491502701	0	0	5.543610547667343	40.717914939268844	EGR1;KLF7;EGR2;KLF6;SMAD3;FOXJ3;SP3
NFIC ENCODE	4/279	0.0015363181895420856	0.024542321794055997	0	0	8.949545454545454	57.9784355619403	EGR1;KLF9;BHLHE40;ZNF148
SRF ENCODE	4/299	0.001978336032031487	0.024542321794055997	0	0	8.334322033898305	51.88531495007222	EGR1;KLF7;EGR3;EGR4
FOXA2 ENCODE	4/316	0.0024178105071528196	0.024542321794055997	0	0	7.873397435897436	47.43637629039035	KLF7;KLF6;KLF9;ZNF148
SUZ12 CHEA	9/1684	0.0024239330166968887	0.024542321794055997	0	0	3.6396019900497514	21.919007433365064	FOXA1;TBX15;EGR2;EGR3;EGR4;WT1;FOXI2;SP5;PAX5
UBTF ENCODE	8/1631	0.007377541516328587	0.06188252530926948	0	0	3.228765073497051	15.851024237686344	EGR1;EGR2;SMAD3;ZNF281;FOXJ3;BHLHE40;VEZF1;PATZ1
NELFE ENCODE	3/234	0.00849440238069662	0.06188252530926948	0	0	7.765840220385675	37.030227719208675	EGR1;BCLAF1;KLF6
TCF3 CHEA	6/1006	0.008513175394449877	0.06188252530926948	0	0	3.7928	18.077016812877506	ZBTB17;KLF9;SP3;BHLHE40;E2F1;PATZ1
NFE2L2 CHEA	6/1022	0.009167781527299182	0.06188252530926948	0	0	3.7299212598425195	17.50101415702542	KLF12;KLF6;SMAD3;KLF9;SP3;ZNF148
CTCF ENCODE	8/1790	0.012647549040035636	0.07454235914279424	0	0	2.9151835818502487	12.740203003410997	FOXA1;EGR1;EGR2;SP1;BHLHE40;PATZ1;KLF16;KLF1
BCL3 ENCODE	3/273	0.012883864543199005	0.07454235914279424	0	0	6.630976430976431	28.85654770269608	SP3;BHLHE40;VEZF1
GATA1 CHEA	5/807	0.014117668214873131	0.07623540836031491	0	0	3.853672270935564	16.417908653833315	SMAD3;SP4;KLF9;ZNF148;KLF1
ZMIZ1 ENCODE	5/914	0.02294764831635363	0.10498116092446244	0	0	3.381063912842897	12.76196036488151	EGR1;KLF7;KLF6;SP4;PATZ1
BHLHE40 ENCODE	3/348	0.0244112971270204	0.10498116092446244	0	0	5.16969696969697	19.19358179436888	BHLHE40;PATZ1;KLF16
PBX3 ENCODE	6/1269	0.024425699119164545	0.10498116092446244	0	0	2.9613618368962786	10.992928898002466	SP2;SP1;ZNF281;SP4;FOXJ3;SP3
RUNX1 CHEA	6/1294	0.02658493822509358	0.10498116092446244	0	0	2.9	10.519490321540966	EGR1;KLF12;KLF6;SMAD3;BHLHE40;E2F4
FOS ENCODE	4/637	0.026810974983464235	0.10498116092446244	0	0	3.817338072669826	13.814732565126809	KLF6;SP2;SP1;SP3
TAF7 ENCODE	4/640	0.027217338017453224	0.10498116092446244	0	0	3.79874213836478	13.69029090131784	EGR1;BCLAF1;KLF6;FOXJ3
IRF3 ENCODE	4/663	0.03045711690578192	0.11213756678946979	0	0	3.6617981790591805	12.78493247773663	KLF6;SP2;SP1;E2F4
TP63 CHEA	6/1399	0.0370593754246826	0.11703503926480441	0	0	2.6663316582914574	8.786186499312345	FOXA1;EGR1;KLF6;SP1;ZNF281;KLF3
ZBTB7A ENCODE	8/2184	0.037232520301003616	0.11703503926480441	0	0	2.335609243697479	7.685492010401917	FOXA1;EGR1;SP3;BHLHE40;VEZF1;PATZ1;KLF3;KLF16
USF1 ENCODE	6/1423	0.039785013526486265	0.11703503926480441	0	0	2.617784050811574	8.440429445896816	KLF6;BHLHE40;E2F1;KLF15;KLF3;KLF16
ZNF384 ENCODE	4/730	0.04116583814720546	0.11703503926480441	0	0	3.31232782369146	10.56681113868722	SP1;FOXJ3;SP3;PATZ1
CEBPD ENCODE	4/734	0.04186562277655674	0.11703503926480441	0	0	3.2934931506849314	10.45120969563213	KLF6;SP3;BHLHE40;KLF3
CREB1 ENCODE	8/2238	0.0421868984927016	0.11703503926480441	0	0	2.2721332479180014	7.192768547090035	EGR1;EGR3;EGR4;SP2;SP1;SP4;FOXJ3;KLF9
CREB1 CHEA	6/1444	0.042274409802480754	0.11703503926480441	0	0	2.57663421418637	8.151371320346081	EGR1;KLF6;SP2;SP1;KLF9;E2F1
NFYA ENCODE	8/2250	0.043346310838816446	0.11703503926480441	0	0	2.258442716961896	7.088198534097488	KLF7;KLF6;SP2;SP1;SP4;KLF9;SP3;E2F1
SOX2 CHEA	4/775	0.049433275459911934	0.12916436491138278	0	0	3.1117055771725033	9.357307826371063	KLF12;EGR3;KLF9;SP3
TRIM28 CHEA	2/210	0.054747757515563954	0.13858026121127126	0	0	5.58710407239819	16.230642757541354	EGR1;WT1
NFYB ENCODE	11/3715	0.057073062863892646	0.1399226502668391	0	0	1.9315334773218142	5.530797437018418	KLF7;BCLAF1;KLF6;SMAD3;SP2;SP1;SP4;KLF9;SP3;E2F1;KLF15
SMC3 ENCODE	5/1181	0.058732964309537394	0.1399226502668391	0	0	2.576804915514593	7.304608395028857	EGR1;EGR2;BHLHE40;PATZ1;KLF16
PPARG CHEA	3/535	0.07094081113905024	0.16417730577894485	0	0	3.3205741626794256	8.785938375639782	KLF7;KLF6;SP3
REST CHEA	5/1280	0.07739349893185786	0.1721555776335881	0	0	2.3641998734977863	6.049638745079037	KLF7;KLF6;EGR4;FOXI2;KLF3
RFX5 ENCODE	3/559	0.07863896756102173	0.1721555776335881	0	0	3.1733158927403533	8.069386687768947	FOXA1;KLF9;E2F1
IRF1 ENCODE	2/263	0.08106453139470925	0.17279544849924866	0	0	4.440613026819923	11.157083559648708	SP2;SP5
TCF7L2 ENCODE	3/583	0.08669355433203735	0.18005584361269297	0	0	3.0382445141065832	7.429649434449808	KLF6;SMAD3;SP5
NANOG CHEA	3/595	0.09085023247985492	0.1839717207717062	0	0	2.9748157248157248	7.1352232105349715	SP2;KLF9;ZNF148
KLF4 CHEA	4/987	0.09982306352415425	0.19631866836316447	0	0	2.4136571719226856	5.561925446228794	SP1;KLF9;KLF3;KLF16
SP2 ENCODE	4/994	0.10179486507719639	0.19631866836316447	0	0	2.3957070707070707	5.473701015780394	SP2;SP1;SP3;ZNF148
BRCA1 ENCODE	9/3218	0.1127980828054587	0.21248010947074777	0	0	1.740417575568713	3.797862544460732	EGR1;BCLAF1;KLF6;SMAD3;SP1;SP4;FOXJ3;BHLHE40;PATZ1
YY1 CHEA	2/332	0.11986239750106222	0.22065577721786453	0	0	3.4998217468805706	7.424559937634028	ZBTB17;SP1
ATF2 ENCODE	8/2852	0.13117468317324904	0.23038092957453127	0	0	1.7199115933293148	3.493528087828475	EGR1;KLF7;BCLAF1;KLF6;SP2;FOXJ3;KLF9;VEZF1
SP1 ENCODE	3/707	0.13344011828336802	0.23038092957453127	0	0	2.487086776859504	5.0092475804741605	KLF6;SP2;SP1
SALL4 CHEA	2/355	0.13367782333337	0.23038092957453127	0	0	3.2679553407765374	6.576180641276897	SP3;E2F1
STAT3 ENCODE	3/725	0.14086227904553766	0.2377050958893448	0	0	2.4228154117350793	4.748651846783115	EGR1;KLF6;BHLHE40
KAT2A ENCODE	1/90	0.1499904635419038	0.24794341932437158	0	0	6.380417335473515	12.10482289581807	EGR1
MAX ENCODE	6/2073	0.1638381420936136	0.26541779019165407	0	0	1.7316884373488146	3.1324101333991887	SMAD3;FOXJ3;KLF9;BHLHE40;E2F1;KLF16
HNF4A ENCODE	4/1276	0.19498555984975283	0.3059266727319898	0	0	1.83687106918239	3.002971517126578	FOXA1;FOXJ3;SP5;PATZ1
BCLAF1 ENCODE	3/851	0.19639737014893172	0.3059266727319898	0	0	2.0493138936535162	3.335494593366476	EGR1;KLF6;BHLHE40
RELA ENCODE	2/484	0.21634680344869825	0.3294192164720504	0	0	2.3775933609958506	3.639792500162044	KLF6;BHLHE40
E2F6 ENCODE	8/3245	0.21961281098136692	0.3294192164720504	0	0	1.4764111390617414	2.238075749548345	KLF7;SP4;KLF9;SP3;BHLHE40;E2F1;SP5;PATZ1
CEBPB ENCODE	1/144	0.2292303764866502	0.33759382718943026	0	0	3.96023976023976	5.833543143716861	BHLHE40
ETS1 ENCODE	1/156	0.24583805673584785	0.3555871892072085	0	0	3.6514285714285712	5.1232546733342605	SP4
MYC CHEA	2/573	0.275934755156564	0.3921178099593278	0	0	1.9978366127536829	2.572396113549478	BCLAF1;PATZ1
ELF1 ENCODE	6/2483	0.28527959724351615	0.39840771339180703	0	0	1.4119499394428745	1.7709883875338759	ZBTB17;BCLAF1;SP2;SP3;E2F4;ZNF148
FOSL2 ENCODE	1/196	0.29872242241800534	0.41011044433658356	0	0	2.8965567765567766	3.4997371787160114	VEZF1
FOXA1 ENCODE	1/205	0.3101147516085681	0.4184859946976908	0	0	2.7675070028011204	3.24023285410695	KLF9
AR CHEA	3/1095	0.3151561194636931	0.4184859946976908	0	0	1.5710955710955712	1.8141238604361123	KLF6;SP4;PAX5
PML ENCODE	4/1596	0.32291020945867005	0.42186656397019795	0	0	1.4425251256281406	1.630602970516199	BCLAF1;KLF6;SP3;VEZF1
STAT5A ENCODE	1/233	0.34441876436846547	0.4419333539690273	0	0	2.430049261083744	2.5901822747941297	EGR1
EZH2 CHEA	1/237	0.34918190930886106	0.4419333539690273	0	0	2.3883777239709443	2.5129609096661323	EGR4
RCOR1 ENCODE	2/702	0.3619674380597641	0.45106711512062914	0	0	1.6188235294117648	1.6450501239141855	FOXJ3;PATZ1
POU5F1 CHEA	1/261	0.3770621117906567	0.46275804628853323	0	0	2.1652747252747253	2.111890639844655	PATZ1
RAD21 ENCODE	3/1265	0.4002657718859613	0.48390339586213227	0	0	1.347212217259761	1.2335432379564282	EGR2;SP1;BHLHE40
GATA2 CHEA	2/772	0.40732679984107595	0.4851980998106934	0	0	1.4663101604278075	1.3169510269952014	KLF6;KLF9
E2F1 CHEA	2/859	0.46161449359337925	0.54189527508788	0	0	1.3114832864300914	1.0138095847817923	KLF9;SP3
USF2 ENCODE	2/965	0.5239260264229538	0.6062572591465609	0	0	1.160649929753833	0.7502496573639127	BHLHE40;KLF16
SPI1 ENCODE	3/1540	0.5314439484548058	0.6062952088005531	0	0	1.0899035902288994	0.6889907788933541	E2F1;E2F4;PATZ1
TAF1 ENCODE	6/3346	0.5732601526015493	0.644917671676743	0	0	0.9954491017964072	0.5538834558333043	BCLAF1;KLF6;SP2;FOXJ3;SP3;ZNF148
FLI1 ENCODE	1/650	0.6959281245474853	0.7648441117493364	0	0	0.8503191723530706	0.3082482621288706	SP2
CHD1 ENCODE	1/655	0.6987464724623568	0.7648441117493364	0	0	0.8435998252512014	0.30240295406782064	ZNF148
ZBTB33 ENCODE	1/702	0.7240271983186215	0.7760223059592535	0	0	0.7851232932545343	0.25353697627946736	BCLAF1
E2F4 ENCODE	1/710	0.7281196944802871	0.7760223059592535	0	0	0.7759419705823091	0.2461984950089059	E2F1
GABPA ENCODE	3/2082	0.7386055077882567	0.7769746250759584	0	0	0.7820630547903276	0.23695831692377908	SP2;SP3;E2F4
YY1 ENCODE	4/2753	0.7494890705949226	0.778315573310112	0	0	0.7827846489632594	0.22572655541309097	ZBTB17;BCLAF1;SP1;VEZF1
MYC ENCODE	2/1515	0.7684912203696975	0.7879466943031075	0	0	0.7173515804206679	0.18889742301163576	BHLHE40;KLF16
NRF1 ENCODE	2/1882	0.8651454354533784	0.8759597533965456	0	0	0.5658322903629537	0.08196513741006198	ZBTB17;ZNF281
SIN3A ENCODE	1/1131	0.8772380943324036	0.8772380943324036	0	0	0.47620733249051833	0.062372129779999154	FOXJ3
