Term	Overlap	P-value	Adjusted P-value	Old P-value	Old Adjusted P-value	Odds Ratio	Combined Score	Genes
AR	8/271	2.232594058021307E-8	2.790742572526634E-6	0	0	21.402498642042367	377.0588746757308	FOXA1;EGR1;SMAD3;SP1;E2F1;E2F4;PAX5;PATZ1
E2F1	6/126	9.252323681606309E-8	3.334553634089184E-6	0	0	33.07333333333333	535.6492909411727	KLF6;SP2;SP1;SP4;SP3;E2F4
SIN3A	7/214	9.335636597184564E-8	3.334553634089184E-6	0	0	23.038314176245212	372.9175463248718	SMAD3;SP1;KLF9;SP3;E2F4;KLF16;KLF1
SP4	3/6	1.0670571629085389E-7	3.334553634089184E-6	0	0	604.8787878787879	9710.234778139893	SP1;SP3;E2F1
SP1	7/263	3.783221977231348E-7	9.45805494307837E-6	0	0	18.582435344827587	274.788127424867	EGR1;KLF6;SMAD3;SP4;KLF9;SP3;E2F1
HCFC1	5/87	4.7000025573033084E-7	9.791671994381891E-6	0	0	39.107002360346186	569.8098527067809	ZBTB17;EGR2;SP1;E2F1;E2F4
TP53	9/628	1.2347856425296421E-6	2.2049743616600752E-5	0	0	10.417339795368875	141.7238781946818	EGR1;KLF6;SMAD3;SP1;WT1;SP3;BHLHE40;E2F1;ZNF148
EP300	8/473	1.5595057156114861E-6	2.436727680642947E-5	0	0	11.980952380952381	160.19901121841283	EGR1;ZBTB17;SMAD3;SP1;SP3;PAX5;ZNF148;KLF16
CRX	3/14	1.922980268926119E-6	2.6708059290640545E-5	0	0	164.900826446281	2170.3643820251177	SP1;SP4;SP3
CEBPB	5/142	5.308219026817522E-6	6.635273783521902E-5	0	0	23.34235931245585	283.52222934233157	EGR1;SMAD3;SP1;SP3;BHLHE40
ZBTB7A	3/29	1.8949235422771326E-5	2.1533222071331052E-4	0	0	69.7132867132867	758.044640469418	SP1;SP4;SP3
KLF4	3/31	2.32530147353243E-5	2.4221890349296145E-4	0	0	64.72727272727273	690.5801770027796	KLF6;SMAD3;SP1
KAT2A	4/107	3.997457696812567E-5	3.843709323858237E-4	0	0	24.103155339805824	244.09908681755394	SMAD3;E2F1;E2F4;ZNF148
SP3	3/38	4.3264215430399456E-5	3.8628763777142375E-4	0	0	51.763636363636365	520.1305788280517	SP1;SP4;E2F1
SREBF2	3/62	1.8829421474876522E-4	0.0015691184562397103	0	0	30.67026194144838	263.07432044187647	EGR1;SMAD3;SP1
ZBTB7B	2/18	4.7330062752558495E-4	0.0036976611525436323	0	0	73.33823529411765	561.461379980425	SP1;SP3
FLI1	2/21	6.474272021420127E-4	0.0047604941333971515	0	0	61.749226006191954	453.3939512870567	SMAD3;KLF1
RUNX1	3/106	9.097376837352594E-4	0.006317622803717079	0	0	17.529567519858784	122.74824179232586	SMAD3;SP1;PAX5
MYCN	2/26	9.963204237941185E-4	0.0063796156110169314	0	0	48.872549019607845	337.7797704194284	ZBTB17;SP1
CEBPA	3/113	0.0010946126189063116	0.0063796156110169314	0	0	16.408264462809917	111.86095969110802	SMAD3;E2F1;E2F4
SMARCC2	3/114	0.00112281234753898	0.0063796156110169314	0	0	16.25962325962326	110.43403953932079	SMAD3;SP1;KLF1
SMARCC1	3/114	0.00112281234753898	0.0063796156110169314	0	0	16.25962325962326	110.43403953932079	SMAD3;SP1;KLF1
CEBPD	2/29	0.0012404195444664348	0.006741410567752363	0	0	43.43572984749456	290.6851787186678	SMAD3;E2F1
YY1	3/120	0.0013016844844614003	0.006779606689903126	0	0	15.421134421134422	102.45949900343717	SMAD3;SP1;SP3
NR0B1	2/33	0.001605879521015661	0.008029397605078304	0	0	37.8235294117647	243.35975347159868	SP1;ZNF281
EGR1	2/35	0.0018055707503116694	0.008359123844035506	0	0	35.52762923351159	224.42371839876353	SMAD3;SP1
KLF5	2/35	0.0018055707503116694	0.008359123844035506	0	0	35.52762923351159	224.42371839876353	ZBTB17;SMAD3
REST	2/37	0.0020164639791465286	0.009002071335475575	0	0	33.49411764705882	207.87822023706013	SP1;SP3
GATA4	2/42	0.00259219077574495	0.010800794898937292	0	0	29.3	174.48888071240097	SMAD3;SP1
AHR	2/42	0.00259219077574495	0.010800794898937292	0	0	29.3	174.48888071240097	FOXA1;SP1
TBP	3/160	0.0029559030440835816	0.011918963887433796	0	0	11.469021424435438	66.79501966705834	SP1;E2F1;PAX5
MYBL2	2/48	0.0033731185420618195	0.013176244304928983	0	0	25.470588235294116	144.97648892699738	E2F1;E2F4
FOXP3	4/350	0.0034908761467615287	0.013223015707430034	0	0	7.08742774566474	40.09784914050753	BCLAF1;SP2;VEZF1;PATZ1
NFATC1	2/50	0.0036549257227984208	0.013437226922053017	0	0	24.40686274509804	136.96349152286243	EGR1;EGR2
ESR2	4/365	0.004053624365696755	0.01447722987748841	0	0	6.787742382271468	37.38786174977367	ZBTB17;BCLAF1;SMAD3;SP1
ESR1	6/871	0.00426483099509872	0.01480844095520389	0	0	4.4159537572254335	24.099417269701025	ZBTB17;BCLAF1;SMAD3;SP2;SP1;SP3
SIN3B	2/55	0.004405748557315177	0.014884285666605327	0	0	22.098779134295228	119.88245371315708	E2F4;KLF16
HDAC2	4/387	0.004986068237157036	0.016401540253806038	0	0	6.390665796344647	33.87760707461252	SP1;SP3;E2F1;E2F4
TRIM28	3/204	0.00582805271797298	0.018679656147349295	0	0	8.938489371325192	45.98917447095539	E2F1;VEZF1;E2F4
BRCA1	4/418	0.006531129192826384	0.020409778727582453	0	0	5.902777777777778	29.697910505300104	SMAD3;SP1;E2F1;E2F4
SMARCA4	3/219	0.007086255090547959	0.02155020904909104	0	0	8.311447811447811	41.13832774161932	SMAD3;SP1;KLF1
HNF4A	2/71	0.0072408702404945895	0.02155020904909104	0	0	16.96078431372549	83.58298052804865	SMAD3;SP1
E2F4	2/73	0.007640328916095304	0.02221025847702123	0	0	16.48135874067937	80.33532794767753	SMAD3;E2F1
HDAC8	2/77	0.008468496054118113	0.02405822742647191	0	0	15.59921568627451	74.43013434591808	SP3;E2F4
KLF9	1/5	0.008968455482759895	0.024912376340999708	0	0	142.57142857142858	672.0876744444516	SP1
CCNE1	2/82	0.009557814928895816	0.025881769896164964	0	0	14.620588235294118	67.99152712269364	E2F1;E2F4
STAT3	3/246	0.009731545480958026	0.025881769896164964	0	0	7.377852600074823	34.17703570532795	SP1;BHLHE40;ZNF148
JUN	3/248	0.009947437400052609	0.025904784895970336	0	0	7.316883116883117	33.73405285624262	EGR1;SMAD3;SP1
EBF1	1/7	0.012533916617468993	0.03133479154367248	0	0	95.03809523809524	416.20194419543344	PAX5
SP2	1/7	0.012533916617468993	0.03133479154367248	0	0	95.03809523809524	416.20194419543344	E2F1
MAX	2/96	0.012918836068587309	0.03166381389359635	0	0	12.434292866082604	54.07759605240032	ZBTB17;SMAD3
ETS1	2/102	0.014495247518160977	0.03484434499557927	0	0	11.684705882352942	49.472278664136425	SMAD3;SP1
EPAS1	2/106	0.01559016412360425	0.03676925500850059	0	0	11.233031674208144	46.741937364211324	SMAD3;SP1
TP63	2/120	0.019691125277368826	0.04558130851242784	0	0	9.89332003988036	38.85687753280906	SMAD3;WT1
HEY1	1/12	0.021393106288118857	0.04815353572232058	0	0	51.82597402597403	199.25462501506232	SMAD3
HIF1A	2/126	0.02157278400359962	0.04815353572232058	0	0	9.411764705882353	36.10656713969488	SMAD3;SP1
POU5F1	3/338	0.022635025235624513	0.04963821323601867	0	0	5.326729986431479	20.17902100337863	SMAD3;SP1;ZNF281
DLX4	1/13	0.02315564927877951	0.04990441654909378	0	0	47.50476190476191	178.87996472866277	SP1
RXRA	2/139	0.025894454176195122	0.05486113172922696	0	0	8.513095749248604	31.10452317575696	SP1;BHLHE40
DACH1	1/15	0.02667148204996858	0.05556558760410121	0	0	40.714285714285715	147.55510087647235	SMAD3
SMAD3	3/375	0.02957687176774244	0.06060834378635745	0	0	4.787878787878788	16.856984484808915	EGR1;SP1;E2F4
SMAD2	3/384	0.03141836928871088	0.06280264529316955	0	0	4.672631830112145	16.16900018515992	SMAD3;SP1;E2F4
NCOR1	2/155	0.03165253322775745	0.06280264529316955	0	0	7.616685890042292	26.299937249191007	SP1;PATZ1
NANOG	2/160	0.0335468737679549	0.06552123782803691	0	0	7.373790022338049	25.03262791256568	SP1;ZNF281
MTF2	1/20	0.0354073301248565	0.06705933735768277	0	0	29.992481203007518	100.19997336732251	SMAD3
ZEB1	1/20	0.0354073301248565	0.06705933735768277	0	0	29.992481203007518	100.19997336732251	SMAD3
BCL11B	1/22	0.038880284957489374	0.07253784506994286	0	0	27.133333333333333	88.10920425980879	SP1
PML	2/178	0.040721497672269645	0.07485569425049567	0	0	6.613636363636363	21.170244230563654	SMAD3;SP1
BCOR	1/25	0.044066934781374086	0.07869095496673945	0	0	23.738095238095237	74.11141474490151	SP1
NFYB	1/25	0.044066934781374086	0.07869095496673945	0	0	23.738095238095237	74.11141474490151	SP1
KDM6A	1/26	0.04578976337343589	0.07949611696777065	0	0	22.78742857142857	70.2694731674912	ZNF281
JARID2	1/26	0.04578976337343589	0.07949611696777065	0	0	22.78742857142857	70.2694731674912	BCLAF1
E2F6	1/29	0.050940157073959394	0.0872262963595195	0	0	20.34285714285714	60.56279579598777	E2F1
E2F2	1/30	0.05265094136520382	0.08893740095473618	0	0	19.64039408866995	57.82271782479102	SP1
BACH1	1/31	0.05435872736369502	0.0905978789394917	0	0	18.984761904761903	55.2864763029152	PATZ1
IRF8	1/32	0.05606352017913235	0.09220973713673083	0	0	18.37142857142857	52.93304493727771	ZBTB17
TCF12	1/36	0.06285286131436205	0.10203386577006826	0	0	16.268571428571427	45.01446718516486	SMAD3
RARG	1/40	0.06959471740161192	0.11120112717339928	0	0	14.597069597069597	38.90216284428102	SMAD3
RUNX3	1/41	0.071272799727047	0.11120112717339928	0	0	14.231428571428571	37.58862572708161	SMAD3
SMAD4	2/245	0.0717376483217045	0.11120112717339928	0	0	4.773904623577827	12.577995501020094	SMAD3;SP1
MITF	1/42	0.07294793942574992	0.11120112717339928	0	0	13.883623693379791	36.34745526394495	PATZ1
NFYA	1/42	0.07294793942574992	0.11120112717339928	0	0	13.883623693379791	36.34745526394495	SP1
LMO2	1/43	0.07462014149992705	0.1120053919713405	0	0	13.552380952380952	35.173101634547834	SP1
JUND	1/44	0.07628941097007867	0.1120053919713405	0	0	13.236544850498339	34.06055692187746	SMAD3
NFKB1	2/254	0.07635446118996786	0.1120053919713405	0	0	4.601307189542483	11.836259137548483	SP1;E2F1
ELF1	1/45	0.077955752812053	0.1120053919713405	0	0	12.935064935064934	33.0052912902955	SP1
IRF1	1/45	0.077955752812053	0.1120053919713405	0	0	12.935064935064934	33.0052912902955	SP2
ATF3	1/46	0.07961917202056437	0.11309541480193802	0	0	12.646984126984126	32.00319789387239	SMAD3
JUNB	1/48	0.08293726244296368	0.11648491916146585	0	0	12.10759878419453	30.143935528683446	SMAD3
ELK1	1/49	0.08459194359992496	0.11748881055545132	0	0	11.854761904761904	29.280269023639796	EGR1
MEF2C	1/50	0.08624372197430759	0.11846665106360932	0	0	11.612244897959183	28.456712045041098	SP1
ESRRA	1/51	0.08789260252971193	0.11941929691536947	0	0	11.379428571428571	27.67066954509134	SP1
MYC	4/957	0.09158559023472437	0.12309891160581232	0	0	2.4935729275970617	5.960839532216533	ZBTB17;SMAD3;SP1;ZNF281
TCF4	1/57	0.0977253074956695	0.12995386635062434	0	0	10.157142857142857	23.62139780665354	EGR1
CTCF	1/60	0.10260293748639536	0.13500386511367812	0	0	9.639225181598063	21.947443048733657	SMAD3
CHD1	1/65	0.11067540915327527	0.1417694575080768	0	0	8.883928571428571	19.554891388067777	BCLAF1
TAL1	1/65	0.11067540915327527	0.1417694575080768	0	0	8.883928571428571	19.554891388067777	SP1
SUZ12	1/66	0.11228141034639683	0.1417694575080768	0	0	8.746813186813187	19.127067203604	WT1
SPI1	1/66	0.11228141034639683	0.1417694575080768	0	0	8.746813186813187	19.127067203604	SMAD3
GATA1	1/69	0.11708251441891135	0.14490410200360315	0	0	8.359663865546219	17.930445246544526	SP1
SREBF1	1/69	0.11708251441891135	0.14490410200360315	0	0	8.359663865546219	17.930445246544526	SP1
SOX2	1/70	0.11867726526877864	0.14543782508428757	0	0	8.238095238095237	17.55824391062889	ZNF281
MYB	1/84	0.14071187733045398	0.1691248525606418	0	0	6.843717728055077	13.420810389400808	PAX5
ESRRB	1/84	0.14071187733045398	0.1691248525606418	0	0	6.843717728055077	13.420810389400808	SP1
GTF2B	1/86	0.14381562741602863	0.17120908025717693	0	0	6.6820168067226895	12.957921780117758	SP1
SRF	1/93	0.15459315573462507	0.18230324968705788	0	0	6.171428571428572	11.521800501573537	SP1
CTNNB1	2/398	0.16040938860431736	0.18739414556579131	0	0	2.906714200831848	5.3193627156148775	EGR1;SMAD3
CCND1	1/108	0.1772455725004333	0.20497083592504514	0	0	5.302269692923899	9.174088257462778	SP1
VDR	1/109	0.17873456892663936	0.20497083592504514	0	0	5.252910052910053	9.044741185873644	SMAD3
CBX3	1/114	0.18614034025493514	0.20552655838113754	0	0	5.019216182048041	8.438579151459255	VEZF1
NR4A1	1/115	0.18761368362577224	0.20552655838113754	0	0	4.974937343358396	8.32491241779145	SMAD3
EZH2	1/115	0.18761368362577224	0.20552655838113754	0	0	4.974937343358396	8.32491241779145	WT1
YAP1	1/115	0.18761368362577224	0.20552655838113754	0	0	4.974937343358396	8.32491241779145	SMAD3
PPARG	1/116	0.18908443371064654	0.20552655838113754	0	0	4.9314285714285715	8.213598182391156	SP1
SMARCB1	1/116	0.18908443371064654	0.20552655838113754	0	0	4.9314285714285715	8.213598182391156	KLF1
CREB1	1/134	0.21511950784540973	0.2318098144885881	0	0	4.260150375939849	6.545983285499286	SP1
SETDB1	1/136	0.2179616266021728	0.23286498568608205	0	0	4.196613756613757	6.3932735511334196	BHLHE40
RARA	1/175	0.2714244381309148	0.2875258878505454	0	0	3.2495894909688015	4.23769701242284	SP1
SMAD1	1/192	0.29360065148891207	0.3084040456816303	0	0	2.9578160059835454	3.6249063387086475	SMAD3
STAT1	1/196	0.29872242241800534	0.3111691900187556	0	0	2.8965567765567766	3.4997371787160114	E2F1
FOS	1/199	0.3025400389917896	0.31254136259482396	0	0	2.8522366522366522	3.409967713310379	SMAD3
NOTCH1	1/204	0.3088578776207369	0.31645274346386976	0	0	2.78128078817734	3.26765462620049	SMAD3
ATF2	1/237	0.34918190930886106	0.3543859351337796	0	0	2.3883777239709443	2.5129609096661323	SMAD3
NR3C1	1/239	0.35155084765270933	0.3543859351337796	0	0	2.3680672268907563	2.4755796556079357	SMAD3
HTT	1/293	0.4124354824038006	0.4124354824038006	0	0	1.924853228962818	1.7047953300773406	SP1
