BHLHE40
E2F1
E2F4
EGR3
ELF1
FOXJ3
HDAC2
HEY1
KLF12
KLF3
KLF5
KLF6
KLF7
LIN54
MAFK
MAX
MAZ
NANOG
PATZ1
REST
SALL1
SMAD3
SP1
SP2
SP3
SP4
SP8
STAT3
TBP
VEZF1
ZBTB17
ZFY
ZNF148
ZNF219
ZNF281
ZNF341
ZNF410
ZNF740
ZNF770
