rs10135727
rs10746326
rs10762181
rs10779702
rs10831245
rs10835802
rs10852505
rs10862890
rs10873173
rs1089266
rs11121161
rs112036953
rs112961123
rs11379773
rs11540403
rs11628221
rs11716461
rs11762469
rs1213048
rs12445641
rs12456731
rs12457718
rs12491877
rs12534131
rs1267673
rs12699404
rs12751763
rs12761008
rs12771808
rs13220352
rs13225225
rs1367638
rs1368418
rs141253408
rs1467013
rs1540319
rs155808
rs165944
rs16903122
rs1714525
rs191959311
rs1933805
rs2008263
rs2206577
rs222901
rs246746
rs250427
rs251377
rs2563323
rs26579
rs301791
rs301807
rs34416841
rs34781508
rs34847753
rs34922657
rs35076982
rs35928531
rs3756338
rs3757440
rs3817373
rs3822356
rs3836407
rs4680445
rs4916888
rs581449
rs5869417
rs615413
rs62444919
rs6500767
rs67019848
rs67446837
rs67571403
rs6903415
rs6952808
rs6977733
rs7074734
rs7086626
rs7120587
rs71484573
rs7201643
rs73038441
rs73154340
rs7481006
rs7612349
rs76277761
rs7638606
rs7653558
rs7759938
rs7787274
rs79269275
rs7955284
rs9284880
rs9391227
rs9641684
rs9819766
